%!PS-Adobe-3.0
%%Creator: graphviz version 2.40.1 (20161225.0304)
%%Title: G
%%Pages: (atend)
%%BoundingBox: (atend)
%%EndComments
save
%%BeginProlog
/DotDict 200 dict def
DotDict begin

/setupLatin1 {
mark
/EncodingVector 256 array def
 EncodingVector 0

ISOLatin1Encoding 0 255 getinterval putinterval
EncodingVector 45 /hyphen put

% Set up ISO Latin 1 character encoding
/starnetISO {
        dup dup findfont dup length dict begin
        { 1 index /FID ne { def }{ pop pop } ifelse
        } forall
        /Encoding EncodingVector def
        currentdict end definefont
} def
/Times-Roman starnetISO def
/Times-Italic starnetISO def
/Times-Bold starnetISO def
/Times-BoldItalic starnetISO def
/Helvetica starnetISO def
/Helvetica-Oblique starnetISO def
/Helvetica-Bold starnetISO def
/Helvetica-BoldOblique starnetISO def
/Courier starnetISO def
/Courier-Oblique starnetISO def
/Courier-Bold starnetISO def
/Courier-BoldOblique starnetISO def
cleartomark
} bind def

%%BeginResource: procset graphviz 0 0
/coord-font-family /Times-Roman def
/default-font-family /Times-Roman def
/coordfont coord-font-family findfont 8 scalefont def

/InvScaleFactor 1.0 def
/set_scale {
       dup 1 exch div /InvScaleFactor exch def
       scale
} bind def

% styles
/solid { [] 0 setdash } bind def
/dashed { [9 InvScaleFactor mul dup ] 0 setdash } bind def
/dotted { [1 InvScaleFactor mul 6 InvScaleFactor mul] 0 setdash } bind def
/invis {/fill {newpath} def /stroke {newpath} def /show {pop newpath} def} bind def
/bold { 2 setlinewidth } bind def
/filled { } bind def
/unfilled { } bind def
/rounded { } bind def
/diagonals { } bind def
/tapered { } bind def

% hooks for setting color 
/nodecolor { sethsbcolor } bind def
/edgecolor { sethsbcolor } bind def
/graphcolor { sethsbcolor } bind def
/nopcolor {pop pop pop} bind def

/beginpage {	% i j npages
	/npages exch def
	/j exch def
	/i exch def
	/str 10 string def
	npages 1 gt {
		gsave
			coordfont setfont
			0 0 moveto
			(\() show i str cvs show (,) show j str cvs show (\)) show
		grestore
	} if
} bind def

/set_font {
	findfont exch
	scalefont setfont
} def

% draw text fitted to its expected width
/alignedtext {			% width text
	/text exch def
	/width exch def
	gsave
		width 0 gt {
			[] 0 setdash
			text stringwidth pop width exch sub text length div 0 text ashow
		} if
	grestore
} def

/boxprim {				% xcorner ycorner xsize ysize
		4 2 roll
		moveto
		2 copy
		exch 0 rlineto
		0 exch rlineto
		pop neg 0 rlineto
		closepath
} bind def

/ellipse_path {
	/ry exch def
	/rx exch def
	/y exch def
	/x exch def
	matrix currentmatrix
	newpath
	x y translate
	rx ry scale
	0 0 1 0 360 arc
	setmatrix
} bind def

/endpage { showpage } bind def
/showpage { } def

/layercolorseq
	[	% layer color sequence - darkest to lightest
		[0 0 0]
		[.2 .8 .8]
		[.4 .8 .8]
		[.6 .8 .8]
		[.8 .8 .8]
	]
def

/layerlen layercolorseq length def

/setlayer {/maxlayer exch def /curlayer exch def
	layercolorseq curlayer 1 sub layerlen mod get
	aload pop sethsbcolor
	/nodecolor {nopcolor} def
	/edgecolor {nopcolor} def
	/graphcolor {nopcolor} def
} bind def

/onlayer { curlayer ne {invis} if } def

/onlayers {
	/myupper exch def
	/mylower exch def
	curlayer mylower lt
	curlayer myupper gt
	or
	{invis} if
} def

/curlayer 0 def

%%EndResource
%%EndProlog
%%BeginSetup
14 default-font-family set_font
% /arrowlength 10 def
% /arrowwidth 5 def

% make sure pdfmark is harmless for PS-interpreters other than Distiller
/pdfmark where {pop} {userdict /pdfmark /cleartomark load put} ifelse
% make '<<' and '>>' safe on PS Level 1 devices
/languagelevel where {pop languagelevel}{1} ifelse
2 lt {
    userdict (<<) cvn ([) cvn load put
    userdict (>>) cvn ([) cvn load put
} if

%%EndSetup
setupLatin1
%%Page: 1 1
%%PageBoundingBox: 36 36 1686 877
%%PageOrientation: Portrait
0 0 1 beginpage
gsave
36 36 1650 841 boxprim clip newpath
1 1 set_scale 0 rotate 40 40 translate
% 0
gsave
1 setlinewidth
0 0 0 nodecolor
71.2132 16.2635 16.0303 16.0303 ellipse_path stroke
0 0 0 nodecolor
14 /Times-Roman set_font
67.7132 12.5635 moveto 7 (0) alignedtext
grestore
% 47
gsave
1 setlinewidth
0 0 0 nodecolor
21.2132 66.2635 21.4286 16.0303 ellipse_path stroke
0 0 0 nodecolor
14 /Times-Roman set_font
14.2132 62.5635 moveto 14 (47) alignedtext
grestore
% 0--47
gsave
.25 setlinewidth
0 0 0 edgecolor
newpath 59.6165 27.8601 moveto
52.0005 35.4762 42.0282 45.4484 34.1545 53.3222 curveto
stroke
grestore
% 1
gsave
1 setlinewidth
0 0 0 nodecolor
171.2132 16.2635 16.0303 16.0303 ellipse_path stroke
0 0 0 nodecolor
14 /Times-Roman set_font
167.7132 12.5635 moveto 7 (1) alignedtext
grestore
% 1--0
gsave
.25 setlinewidth
0 0 0 edgecolor
newpath 154.7002 16.2635 moveto
136.1718 16.2635 106.2891 16.2635 87.7507 16.2635 curveto
stroke
grestore
% 2
gsave
1 setlinewidth
0 0 0 nodecolor
271.2132 16.2635 16.0303 16.0303 ellipse_path stroke
0 0 0 nodecolor
14 /Times-Roman set_font
267.7132 12.5635 moveto 7 (2) alignedtext
grestore
% 2--1
gsave
.25 setlinewidth
0 0 0 edgecolor
newpath 254.7002 16.2635 moveto
236.1718 16.2635 206.2891 16.2635 187.7507 16.2635 curveto
stroke
grestore
% 3
gsave
1 setlinewidth
0 0 0 nodecolor
371.2132 16.2635 16.0303 16.0303 ellipse_path stroke
0 0 0 nodecolor
14 /Times-Roman set_font
367.7132 12.5635 moveto 7 (3) alignedtext
grestore
% 3--2
gsave
.25 setlinewidth
0 0 0 edgecolor
newpath 354.7002 16.2635 moveto
336.1718 16.2635 306.2891 16.2635 287.7507 16.2635 curveto
stroke
grestore
% 4
gsave
1 setlinewidth
0 0 0 nodecolor
471.2132 16.2635 16.0303 16.0303 ellipse_path stroke
0 0 0 nodecolor
14 /Times-Roman set_font
467.7132 12.5635 moveto 7 (4) alignedtext
grestore
% 4--3
gsave
.25 setlinewidth
0 0 0 edgecolor
newpath 454.7002 16.2635 moveto
436.1718 16.2635 406.2891 16.2635 387.7507 16.2635 curveto
stroke
grestore
% 5
gsave
1 setlinewidth
0 0 0 nodecolor
571.2132 16.2635 16.0303 16.0303 ellipse_path stroke
0 0 0 nodecolor
14 /Times-Roman set_font
567.7132 12.5635 moveto 7 (5) alignedtext
grestore
% 5--4
gsave
.25 setlinewidth
0 0 0 edgecolor
newpath 554.7002 16.2635 moveto
536.1718 16.2635 506.2891 16.2635 487.7507 16.2635 curveto
stroke
grestore
% 6
gsave
1 setlinewidth
0 0 0 nodecolor
671.2132 16.2635 16.0303 16.0303 ellipse_path stroke
0 0 0 nodecolor
14 /Times-Roman set_font
667.7132 12.5635 moveto 7 (6) alignedtext
grestore
% 6--5
gsave
.25 setlinewidth
0 0 0 edgecolor
newpath 654.7002 16.2635 moveto
636.1718 16.2635 606.2891 16.2635 587.7507 16.2635 curveto
stroke
grestore
% 7
gsave
1 setlinewidth
0 0 0 nodecolor
771.2132 16.2635 16.0303 16.0303 ellipse_path stroke
0 0 0 nodecolor
14 /Times-Roman set_font
767.7132 12.5635 moveto 7 (7) alignedtext
grestore
% 7--6
gsave
.25 setlinewidth
0 0 0 edgecolor
newpath 754.7002 16.2635 moveto
736.1718 16.2635 706.2891 16.2635 687.7507 16.2635 curveto
stroke
grestore
% 8
gsave
1 setlinewidth
0 0 0 nodecolor
871.2132 16.2635 16.0303 16.0303 ellipse_path stroke
0 0 0 nodecolor
14 /Times-Roman set_font
867.7132 12.5635 moveto 7 (8) alignedtext
grestore
% 8--7
gsave
.25 setlinewidth
0 0 0 edgecolor
newpath 854.7002 16.2635 moveto
836.1718 16.2635 806.2891 16.2635 787.7507 16.2635 curveto
stroke
grestore
% 9
gsave
1 setlinewidth
0 0 0 nodecolor
971.2132 16.2635 16.0303 16.0303 ellipse_path stroke
0 0 0 nodecolor
14 /Times-Roman set_font
967.7132 12.5635 moveto 7 (9) alignedtext
grestore
% 9--8
gsave
.25 setlinewidth
0 0 0 edgecolor
newpath 954.7002 16.2635 moveto
936.1718 16.2635 906.2891 16.2635 887.7507 16.2635 curveto
stroke
grestore
% 10
gsave
1 setlinewidth
0 0 0 nodecolor
1071.2132 16.2635 21.4286 16.0303 ellipse_path stroke
0 0 0 nodecolor
14 /Times-Roman set_font
1064.2132 12.5635 moveto 14 (10) alignedtext
grestore
% 10--9
gsave
.25 setlinewidth
0 0 0 edgecolor
newpath 1049.5147 16.2635 moveto
1030.9032 16.2635 1004.4909 16.2635 987.6037 16.2635 curveto
stroke
grestore
% 11
gsave
1 setlinewidth
0 0 0 nodecolor
1171.2132 16.2635 21.4286 16.0303 ellipse_path stroke
0 0 0 nodecolor
14 /Times-Roman set_font
1164.2132 12.5635 moveto 14 (11) alignedtext
grestore
% 11--10
gsave
.25 setlinewidth
0 0 0 edgecolor
newpath 1149.5147 16.2635 moveto
1132.6265 16.2635 1109.3152 16.2635 1092.5258 16.2635 curveto
stroke
grestore
% 12
gsave
1 setlinewidth
0 0 0 nodecolor
1271.2132 16.2635 21.4286 16.0303 ellipse_path stroke
0 0 0 nodecolor
14 /Times-Roman set_font
1264.2132 12.5635 moveto 14 (12) alignedtext
grestore
% 12--11
gsave
.25 setlinewidth
0 0 0 edgecolor
newpath 1249.5147 16.2635 moveto
1232.6265 16.2635 1209.3152 16.2635 1192.5258 16.2635 curveto
stroke
grestore
% 13
gsave
1 setlinewidth
0 0 0 nodecolor
1371.2132 16.2635 21.4286 16.0303 ellipse_path stroke
0 0 0 nodecolor
14 /Times-Roman set_font
1364.2132 12.5635 moveto 14 (13) alignedtext
grestore
% 13--12
gsave
.25 setlinewidth
0 0 0 edgecolor
newpath 1349.5147 16.2635 moveto
1332.6265 16.2635 1309.3152 16.2635 1292.5258 16.2635 curveto
stroke
grestore
% 14
gsave
1 setlinewidth
0 0 0 nodecolor
1471.2132 16.2635 21.4286 16.0303 ellipse_path stroke
0 0 0 nodecolor
14 /Times-Roman set_font
1464.2132 12.5635 moveto 14 (14) alignedtext
grestore
% 14--13
gsave
.25 setlinewidth
0 0 0 edgecolor
newpath 1449.5147 16.2635 moveto
1432.6265 16.2635 1409.3152 16.2635 1392.5258 16.2635 curveto
stroke
grestore
% 15
gsave
1 setlinewidth
0 0 0 nodecolor
1571.2132 16.2635 21.4286 16.0303 ellipse_path stroke
0 0 0 nodecolor
14 /Times-Roman set_font
1564.2132 12.5635 moveto 14 (15) alignedtext
grestore
% 15--14
gsave
.25 setlinewidth
0 0 0 edgecolor
newpath 1549.5147 16.2635 moveto
1532.6265 16.2635 1509.3152 16.2635 1492.5258 16.2635 curveto
stroke
grestore
% 61
gsave
1 setlinewidth
0 0 0 nodecolor
1521.2132 66.2635 21.4286 16.0303 ellipse_path stroke
0 0 0 nodecolor
14 /Times-Roman set_font
1514.2132 62.5635 moveto 14 (61) alignedtext
grestore
% 15--61
gsave
.25 setlinewidth
0 0 0 edgecolor
newpath 1558.0763 29.4004 moveto
1550.785 36.6917 1541.741 45.7357 1534.436 53.0407 curveto
stroke
grestore
% 16
gsave
1 setlinewidth
0 0 0 nodecolor
1621.2132 66.2635 21.4286 16.0303 ellipse_path stroke
0 0 0 nodecolor
14 /Times-Roman set_font
1614.2132 62.5635 moveto 14 (16) alignedtext
grestore
% 16--15
gsave
.25 setlinewidth
0 0 0 edgecolor
newpath 1608.0763 53.1265 moveto
1600.785 45.8352 1591.741 36.7913 1584.436 29.4862 curveto
stroke
grestore
% 16--61
gsave
.25 setlinewidth
0 0 0 edgecolor
newpath 1599.5147 66.2635 moveto
1582.6265 66.2635 1559.3152 66.2635 1542.5258 66.2635 curveto
stroke
grestore
% 17
gsave
1 setlinewidth
0 0 0 nodecolor
1571.2132 116.2635 21.4286 16.0303 ellipse_path stroke
0 0 0 nodecolor
14 /Times-Roman set_font
1564.2132 112.5635 moveto 14 (17) alignedtext
grestore
% 17--16
gsave
.25 setlinewidth
0 0 0 edgecolor
newpath 1584.3501 103.1265 moveto
1591.6414 95.8352 1600.6854 86.7913 1607.9904 79.4862 curveto
stroke
grestore
% 62
gsave
1 setlinewidth
0 0 0 nodecolor
1471.2132 116.2635 21.4286 16.0303 ellipse_path stroke
0 0 0 nodecolor
14 /Times-Roman set_font
1464.2132 112.5635 moveto 14 (62) alignedtext
grestore
% 17--62
gsave
.25 setlinewidth
0 0 0 edgecolor
newpath 1549.5147 116.2635 moveto
1532.6265 116.2635 1509.3152 116.2635 1492.5258 116.2635 curveto
stroke
grestore
% 18
gsave
1 setlinewidth
0 0 0 nodecolor
1521.2132 166.2635 21.4286 16.0303 ellipse_path stroke
0 0 0 nodecolor
14 /Times-Roman set_font
1514.2132 162.5635 moveto 14 (18) alignedtext
grestore
% 18--17
gsave
.25 setlinewidth
0 0 0 edgecolor
newpath 1534.3501 153.1265 moveto
1541.6414 145.8352 1550.6854 136.7913 1557.9904 129.4862 curveto
stroke
grestore
% 63
gsave
1 setlinewidth
0 0 0 nodecolor
1421.2132 166.2635 21.4286 16.0303 ellipse_path stroke
0 0 0 nodecolor
14 /Times-Roman set_font
1414.2132 162.5635 moveto 14 (63) alignedtext
grestore
% 18--63
gsave
.25 setlinewidth
0 0 0 edgecolor
newpath 1499.5147 166.2635 moveto
1482.6265 166.2635 1459.3152 166.2635 1442.5258 166.2635 curveto
stroke
grestore
% 19
gsave
1 setlinewidth
0 0 0 nodecolor
1471.2132 216.2635 21.4286 16.0303 ellipse_path stroke
0 0 0 nodecolor
14 /Times-Roman set_font
1464.2132 212.5635 moveto 14 (19) alignedtext
grestore
% 19--18
gsave
.25 setlinewidth
0 0 0 edgecolor
newpath 1484.3501 203.1265 moveto
1491.6414 195.8352 1500.6854 186.7913 1507.9904 179.4862 curveto
stroke
grestore
% 64
gsave
1 setlinewidth
0 0 0 nodecolor
1371.2132 216.2635 21.4286 16.0303 ellipse_path stroke
0 0 0 nodecolor
14 /Times-Roman set_font
1364.2132 212.5635 moveto 14 (64) alignedtext
grestore
% 19--64
gsave
.25 setlinewidth
0 0 0 edgecolor
newpath 1449.5147 216.2635 moveto
1432.6265 216.2635 1409.3152 216.2635 1392.5258 216.2635 curveto
stroke
grestore
% 20
gsave
1 setlinewidth
0 0 0 nodecolor
1421.2132 266.2635 21.4286 16.0303 ellipse_path stroke
0 0 0 nodecolor
14 /Times-Roman set_font
1414.2132 262.5635 moveto 14 (20) alignedtext
grestore
% 20--19
gsave
.25 setlinewidth
0 0 0 edgecolor
newpath 1434.3501 253.1265 moveto
1441.6414 245.8352 1450.6854 236.7913 1457.9904 229.4862 curveto
stroke
grestore
% 65
gsave
1 setlinewidth
0 0 0 nodecolor
1321.2132 266.2635 21.4286 16.0303 ellipse_path stroke
0 0 0 nodecolor
14 /Times-Roman set_font
1314.2132 262.5635 moveto 14 (65) alignedtext
grestore
% 20--65
gsave
.25 setlinewidth
0 0 0 edgecolor
newpath 1399.5147 266.2635 moveto
1382.6265 266.2635 1359.3152 266.2635 1342.5258 266.2635 curveto
stroke
grestore
% 21
gsave
1 setlinewidth
0 0 0 nodecolor
1371.2132 316.2635 21.4286 16.0303 ellipse_path stroke
0 0 0 nodecolor
14 /Times-Roman set_font
1364.2132 312.5635 moveto 14 (21) alignedtext
grestore
% 21--20
gsave
.25 setlinewidth
0 0 0 edgecolor
newpath 1384.3501 303.1265 moveto
1391.6414 295.8352 1400.6854 286.7913 1407.9904 279.4862 curveto
stroke
grestore
% 66
gsave
1 setlinewidth
0 0 0 nodecolor
1271.2132 316.2635 21.4286 16.0303 ellipse_path stroke
0 0 0 nodecolor
14 /Times-Roman set_font
1264.2132 312.5635 moveto 14 (66) alignedtext
grestore
% 21--66
gsave
.25 setlinewidth
0 0 0 edgecolor
newpath 1349.5147 316.2635 moveto
1332.6265 316.2635 1309.3152 316.2635 1292.5258 316.2635 curveto
stroke
grestore
% 22
gsave
1 setlinewidth
0 0 0 nodecolor
1321.2132 366.2635 21.4286 16.0303 ellipse_path stroke
0 0 0 nodecolor
14 /Times-Roman set_font
1314.2132 362.5635 moveto 14 (22) alignedtext
grestore
% 22--21
gsave
.25 setlinewidth
0 0 0 edgecolor
newpath 1334.3501 353.1265 moveto
1341.6414 345.8352 1350.6854 336.7913 1357.9904 329.4862 curveto
stroke
grestore
% 67
gsave
1 setlinewidth
0 0 0 nodecolor
1221.2132 366.2635 21.4286 16.0303 ellipse_path stroke
0 0 0 nodecolor
14 /Times-Roman set_font
1214.2132 362.5635 moveto 14 (67) alignedtext
grestore
% 22--67
gsave
.25 setlinewidth
0 0 0 edgecolor
newpath 1299.5147 366.2635 moveto
1282.6265 366.2635 1259.3152 366.2635 1242.5258 366.2635 curveto
stroke
grestore
% 23
gsave
1 setlinewidth
0 0 0 nodecolor
1271.2132 416.2635 21.4286 16.0303 ellipse_path stroke
0 0 0 nodecolor
14 /Times-Roman set_font
1264.2132 412.5635 moveto 14 (23) alignedtext
grestore
% 23--22
gsave
.25 setlinewidth
0 0 0 edgecolor
newpath 1284.3501 403.1265 moveto
1291.6414 395.8352 1300.6854 386.7913 1307.9904 379.4862 curveto
stroke
grestore
% 68
gsave
1 setlinewidth
0 0 0 nodecolor
1171.2132 416.2635 21.4286 16.0303 ellipse_path stroke
0 0 0 nodecolor
14 /Times-Roman set_font
1164.2132 412.5635 moveto 14 (68) alignedtext
grestore
% 23--68
gsave
.25 setlinewidth
0 0 0 edgecolor
newpath 1249.5147 416.2635 moveto
1232.6265 416.2635 1209.3152 416.2635 1192.5258 416.2635 curveto
stroke
grestore
% 24
gsave
1 setlinewidth
0 0 0 nodecolor
1221.2132 466.2635 21.4286 16.0303 ellipse_path stroke
0 0 0 nodecolor
14 /Times-Roman set_font
1214.2132 462.5635 moveto 14 (24) alignedtext
grestore
% 24--23
gsave
.25 setlinewidth
0 0 0 edgecolor
newpath 1234.3501 453.1265 moveto
1241.6414 445.8352 1250.6854 436.7913 1257.9904 429.4862 curveto
stroke
grestore
% 69
gsave
1 setlinewidth
0 0 0 nodecolor
1121.2132 466.2635 21.4286 16.0303 ellipse_path stroke
0 0 0 nodecolor
14 /Times-Roman set_font
1114.2132 462.5635 moveto 14 (69) alignedtext
grestore
% 24--69
gsave
.25 setlinewidth
0 0 0 edgecolor
newpath 1199.5147 466.2635 moveto
1182.6265 466.2635 1159.3152 466.2635 1142.5258 466.2635 curveto
stroke
grestore
% 25
gsave
1 setlinewidth
0 0 0 nodecolor
1171.2132 516.2635 21.4286 16.0303 ellipse_path stroke
0 0 0 nodecolor
14 /Times-Roman set_font
1164.2132 512.5635 moveto 14 (25) alignedtext
grestore
% 25--24
gsave
.25 setlinewidth
0 0 0 edgecolor
newpath 1184.3501 503.1265 moveto
1191.6414 495.8352 1200.6854 486.7913 1207.9904 479.4862 curveto
stroke
grestore
% 70
gsave
1 setlinewidth
0 0 0 nodecolor
1071.2132 516.2635 21.4286 16.0303 ellipse_path stroke
0 0 0 nodecolor
14 /Times-Roman set_font
1064.2132 512.5635 moveto 14 (70) alignedtext
grestore
% 25--70
gsave
.25 setlinewidth
0 0 0 edgecolor
newpath 1149.5147 516.2635 moveto
1132.6265 516.2635 1109.3152 516.2635 1092.5258 516.2635 curveto
stroke
grestore
% 26
gsave
1 setlinewidth
0 0 0 nodecolor
1121.2132 566.2635 21.4286 16.0303 ellipse_path stroke
0 0 0 nodecolor
14 /Times-Roman set_font
1114.2132 562.5635 moveto 14 (26) alignedtext
grestore
% 26--25
gsave
.25 setlinewidth
0 0 0 edgecolor
newpath 1134.3501 553.1265 moveto
1141.6414 545.8352 1150.6854 536.7913 1157.9904 529.4862 curveto
stroke
grestore
% 71
gsave
1 setlinewidth
0 0 0 nodecolor
1021.2132 566.2635 21.4286 16.0303 ellipse_path stroke
0 0 0 nodecolor
14 /Times-Roman set_font
1014.2132 562.5635 moveto 14 (71) alignedtext
grestore
% 26--71
gsave
.25 setlinewidth
0 0 0 edgecolor
newpath 1099.5147 566.2635 moveto
1082.6265 566.2635 1059.3152 566.2635 1042.5258 566.2635 curveto
stroke
grestore
% 27
gsave
1 setlinewidth
0 0 0 nodecolor
1071.2132 616.2635 21.4286 16.0303 ellipse_path stroke
0 0 0 nodecolor
14 /Times-Roman set_font
1064.2132 612.5635 moveto 14 (27) alignedtext
grestore
% 27--26
gsave
.25 setlinewidth
0 0 0 edgecolor
newpath 1084.3501 603.1265 moveto
1091.6414 595.8352 1100.6854 586.7913 1107.9904 579.4862 curveto
stroke
grestore
% 72
gsave
1 setlinewidth
0 0 0 nodecolor
971.2132 616.2635 21.4286 16.0303 ellipse_path stroke
0 0 0 nodecolor
14 /Times-Roman set_font
964.2132 612.5635 moveto 14 (72) alignedtext
grestore
% 27--72
gsave
.25 setlinewidth
0 0 0 edgecolor
newpath 1049.5147 616.2635 moveto
1032.6265 616.2635 1009.3152 616.2635 992.5258 616.2635 curveto
stroke
grestore
% 28
gsave
1 setlinewidth
0 0 0 nodecolor
1021.2132 666.2635 21.4286 16.0303 ellipse_path stroke
0 0 0 nodecolor
14 /Times-Roman set_font
1014.2132 662.5635 moveto 14 (28) alignedtext
grestore
% 28--27
gsave
.25 setlinewidth
0 0 0 edgecolor
newpath 1034.3501 653.1265 moveto
1041.6414 645.8352 1050.6854 636.7913 1057.9904 629.4862 curveto
stroke
grestore
% 73
gsave
1 setlinewidth
0 0 0 nodecolor
921.2132 666.2635 21.4286 16.0303 ellipse_path stroke
0 0 0 nodecolor
14 /Times-Roman set_font
914.2132 662.5635 moveto 14 (73) alignedtext
grestore
% 28--73
gsave
.25 setlinewidth
0 0 0 edgecolor
newpath 999.5147 666.2635 moveto
982.6265 666.2635 959.3152 666.2635 942.5258 666.2635 curveto
stroke
grestore
% 29
gsave
1 setlinewidth
0 0 0 nodecolor
971.2132 716.2635 21.4286 16.0303 ellipse_path stroke
0 0 0 nodecolor
14 /Times-Roman set_font
964.2132 712.5635 moveto 14 (29) alignedtext
grestore
% 29--28
gsave
.25 setlinewidth
0 0 0 edgecolor
newpath 984.3501 703.1265 moveto
991.6414 695.8352 1000.6854 686.7913 1007.9904 679.4862 curveto
stroke
grestore
% 74
gsave
1 setlinewidth
0 0 0 nodecolor
871.2132 716.2635 21.4286 16.0303 ellipse_path stroke
0 0 0 nodecolor
14 /Times-Roman set_font
864.2132 712.5635 moveto 14 (74) alignedtext
grestore
% 29--74
gsave
.25 setlinewidth
0 0 0 edgecolor
newpath 949.5147 716.2635 moveto
932.6265 716.2635 909.3152 716.2635 892.5258 716.2635 curveto
stroke
grestore
% 30
gsave
1 setlinewidth
0 0 0 nodecolor
921.2132 766.2635 21.4286 16.0303 ellipse_path stroke
0 0 0 nodecolor
14 /Times-Roman set_font
914.2132 762.5635 moveto 14 (30) alignedtext
grestore
% 30--29
gsave
.25 setlinewidth
0 0 0 edgecolor
newpath 934.3501 753.1265 moveto
941.6414 745.8352 950.6854 736.7913 957.9904 729.4862 curveto
stroke
grestore
% 30--74
gsave
.25 setlinewidth
0 0 0 edgecolor
newpath 908.0763 753.1265 moveto
900.785 745.8352 891.741 736.7913 884.436 729.4862 curveto
stroke
grestore
% 31
gsave
1 setlinewidth
0 0 0 nodecolor
871.2132 816.2635 21.4286 16.0303 ellipse_path stroke
0 0 0 nodecolor
14 /Times-Roman set_font
864.2132 812.5635 moveto 14 (31) alignedtext
grestore
% 31--30
gsave
.25 setlinewidth
0 0 0 edgecolor
newpath 884.3501 803.1265 moveto
891.6414 795.8352 900.6854 786.7913 907.9904 779.4862 curveto
stroke
grestore
% 75
gsave
1 setlinewidth
0 0 0 nodecolor
821.2132 766.2635 21.4286 16.0303 ellipse_path stroke
0 0 0 nodecolor
14 /Times-Roman set_font
814.2132 762.5635 moveto 14 (75) alignedtext
grestore
% 31--75
gsave
.25 setlinewidth
0 0 0 edgecolor
newpath 858.0763 803.1265 moveto
850.785 795.8352 841.741 786.7913 834.436 779.4862 curveto
stroke
grestore
% 32
gsave
1 setlinewidth
0 0 0 nodecolor
771.2132 816.2635 21.4286 16.0303 ellipse_path stroke
0 0 0 nodecolor
14 /Times-Roman set_font
764.2132 812.5635 moveto 14 (32) alignedtext
grestore
% 32--31
gsave
.25 setlinewidth
0 0 0 edgecolor
newpath 792.9117 816.2635 moveto
809.7999 816.2635 833.1112 816.2635 849.9006 816.2635 curveto
stroke
grestore
% 32--75
gsave
.25 setlinewidth
0 0 0 edgecolor
newpath 784.3501 803.1265 moveto
791.6414 795.8352 800.6854 786.7913 807.9904 779.4862 curveto
stroke
grestore
% 33
gsave
1 setlinewidth
0 0 0 nodecolor
721.2132 766.2635 21.4286 16.0303 ellipse_path stroke
0 0 0 nodecolor
14 /Times-Roman set_font
714.2132 762.5635 moveto 14 (33) alignedtext
grestore
% 33--32
gsave
.25 setlinewidth
0 0 0 edgecolor
newpath 734.3501 779.4004 moveto
741.6414 786.6917 750.6854 795.7357 757.9904 803.0407 curveto
stroke
grestore
% 76
gsave
1 setlinewidth
0 0 0 nodecolor
771.2132 716.2635 21.4286 16.0303 ellipse_path stroke
0 0 0 nodecolor
14 /Times-Roman set_font
764.2132 712.5635 moveto 14 (76) alignedtext
grestore
% 33--76
gsave
.25 setlinewidth
0 0 0 edgecolor
newpath 734.3501 753.1265 moveto
741.6414 745.8352 750.6854 736.7913 757.9904 729.4862 curveto
stroke
grestore
% 34
gsave
1 setlinewidth
0 0 0 nodecolor
671.2132 716.2635 21.4286 16.0303 ellipse_path stroke
0 0 0 nodecolor
14 /Times-Roman set_font
664.2132 712.5635 moveto 14 (34) alignedtext
grestore
% 34--33
gsave
.25 setlinewidth
0 0 0 edgecolor
newpath 684.3501 729.4004 moveto
691.6414 736.6917 700.6854 745.7357 707.9904 753.0407 curveto
stroke
grestore
% 77
gsave
1 setlinewidth
0 0 0 nodecolor
721.2132 666.2635 21.4286 16.0303 ellipse_path stroke
0 0 0 nodecolor
14 /Times-Roman set_font
714.2132 662.5635 moveto 14 (77) alignedtext
grestore
% 34--77
gsave
.25 setlinewidth
0 0 0 edgecolor
newpath 684.3501 703.1265 moveto
691.6414 695.8352 700.6854 686.7913 707.9904 679.4862 curveto
stroke
grestore
% 35
gsave
1 setlinewidth
0 0 0 nodecolor
621.2132 666.2635 21.4286 16.0303 ellipse_path stroke
0 0 0 nodecolor
14 /Times-Roman set_font
614.2132 662.5635 moveto 14 (35) alignedtext
grestore
% 35--34
gsave
.25 setlinewidth
0 0 0 edgecolor
newpath 634.3501 679.4004 moveto
641.6414 686.6917 650.6854 695.7357 657.9904 703.0407 curveto
stroke
grestore
% 78
gsave
1 setlinewidth
0 0 0 nodecolor
671.2132 616.2635 21.4286 16.0303 ellipse_path stroke
0 0 0 nodecolor
14 /Times-Roman set_font
664.2132 612.5635 moveto 14 (78) alignedtext
grestore
% 35--78
gsave
.25 setlinewidth
0 0 0 edgecolor
newpath 634.3501 653.1265 moveto
641.6414 645.8352 650.6854 636.7913 657.9904 629.4862 curveto
stroke
grestore
% 36
gsave
1 setlinewidth
0 0 0 nodecolor
571.2132 616.2635 21.4286 16.0303 ellipse_path stroke
0 0 0 nodecolor
14 /Times-Roman set_font
564.2132 612.5635 moveto 14 (36) alignedtext
grestore
% 36--35
gsave
.25 setlinewidth
0 0 0 edgecolor
newpath 584.3501 629.4004 moveto
591.6414 636.6917 600.6854 645.7357 607.9904 653.0407 curveto
stroke
grestore
% 79
gsave
1 setlinewidth
0 0 0 nodecolor
621.2132 566.2635 21.4286 16.0303 ellipse_path stroke
0 0 0 nodecolor
14 /Times-Roman set_font
614.2132 562.5635 moveto 14 (79) alignedtext
grestore
% 36--79
gsave
.25 setlinewidth
0 0 0 edgecolor
newpath 584.3501 603.1265 moveto
591.6414 595.8352 600.6854 586.7913 607.9904 579.4862 curveto
stroke
grestore
% 37
gsave
1 setlinewidth
0 0 0 nodecolor
521.2132 566.2635 21.4286 16.0303 ellipse_path stroke
0 0 0 nodecolor
14 /Times-Roman set_font
514.2132 562.5635 moveto 14 (37) alignedtext
grestore
% 37--36
gsave
.25 setlinewidth
0 0 0 edgecolor
newpath 534.3501 579.4004 moveto
541.6414 586.6917 550.6854 595.7357 557.9904 603.0407 curveto
stroke
grestore
% 80
gsave
1 setlinewidth
0 0 0 nodecolor
571.2132 516.2635 21.4286 16.0303 ellipse_path stroke
0 0 0 nodecolor
14 /Times-Roman set_font
564.2132 512.5635 moveto 14 (80) alignedtext
grestore
% 37--80
gsave
.25 setlinewidth
0 0 0 edgecolor
newpath 534.3501 553.1265 moveto
541.6414 545.8352 550.6854 536.7913 557.9904 529.4862 curveto
stroke
grestore
% 38
gsave
1 setlinewidth
0 0 0 nodecolor
471.2132 516.2635 21.4286 16.0303 ellipse_path stroke
0 0 0 nodecolor
14 /Times-Roman set_font
464.2132 512.5635 moveto 14 (38) alignedtext
grestore
% 38--37
gsave
.25 setlinewidth
0 0 0 edgecolor
newpath 484.3501 529.4004 moveto
491.6414 536.6917 500.6854 545.7357 507.9904 553.0407 curveto
stroke
grestore
% 81
gsave
1 setlinewidth
0 0 0 nodecolor
521.2132 466.2635 21.4286 16.0303 ellipse_path stroke
0 0 0 nodecolor
14 /Times-Roman set_font
514.2132 462.5635 moveto 14 (81) alignedtext
grestore
% 38--81
gsave
.25 setlinewidth
0 0 0 edgecolor
newpath 484.3501 503.1265 moveto
491.6414 495.8352 500.6854 486.7913 507.9904 479.4862 curveto
stroke
grestore
% 39
gsave
1 setlinewidth
0 0 0 nodecolor
421.2132 466.2635 21.4286 16.0303 ellipse_path stroke
0 0 0 nodecolor
14 /Times-Roman set_font
414.2132 462.5635 moveto 14 (39) alignedtext
grestore
% 39--38
gsave
.25 setlinewidth
0 0 0 edgecolor
newpath 434.3501 479.4004 moveto
441.6414 486.6917 450.6854 495.7357 457.9904 503.0407 curveto
stroke
grestore
% 82
gsave
1 setlinewidth
0 0 0 nodecolor
471.2132 416.2635 21.4286 16.0303 ellipse_path stroke
0 0 0 nodecolor
14 /Times-Roman set_font
464.2132 412.5635 moveto 14 (82) alignedtext
grestore
% 39--82
gsave
.25 setlinewidth
0 0 0 edgecolor
newpath 434.3501 453.1265 moveto
441.6414 445.8352 450.6854 436.7913 457.9904 429.4862 curveto
stroke
grestore
% 40
gsave
1 setlinewidth
0 0 0 nodecolor
371.2132 416.2635 21.4286 16.0303 ellipse_path stroke
0 0 0 nodecolor
14 /Times-Roman set_font
364.2132 412.5635 moveto 14 (40) alignedtext
grestore
% 40--39
gsave
.25 setlinewidth
0 0 0 edgecolor
newpath 384.3501 429.4004 moveto
391.6414 436.6917 400.6854 445.7357 407.9904 453.0407 curveto
stroke
grestore
% 83
gsave
1 setlinewidth
0 0 0 nodecolor
421.2132 366.2635 21.4286 16.0303 ellipse_path stroke
0 0 0 nodecolor
14 /Times-Roman set_font
414.2132 362.5635 moveto 14 (83) alignedtext
grestore
% 40--83
gsave
.25 setlinewidth
0 0 0 edgecolor
newpath 384.3501 403.1265 moveto
391.6414 395.8352 400.6854 386.7913 407.9904 379.4862 curveto
stroke
grestore
% 41
gsave
1 setlinewidth
0 0 0 nodecolor
321.2132 366.2635 21.4286 16.0303 ellipse_path stroke
0 0 0 nodecolor
14 /Times-Roman set_font
314.2132 362.5635 moveto 14 (41) alignedtext
grestore
% 41--40
gsave
.25 setlinewidth
0 0 0 edgecolor
newpath 334.3501 379.4004 moveto
341.6414 386.6917 350.6854 395.7357 357.9904 403.0407 curveto
stroke
grestore
% 84
gsave
1 setlinewidth
0 0 0 nodecolor
371.2132 316.2635 21.4286 16.0303 ellipse_path stroke
0 0 0 nodecolor
14 /Times-Roman set_font
364.2132 312.5635 moveto 14 (84) alignedtext
grestore
% 41--84
gsave
.25 setlinewidth
0 0 0 edgecolor
newpath 334.3501 353.1265 moveto
341.6414 345.8352 350.6854 336.7913 357.9904 329.4862 curveto
stroke
grestore
% 42
gsave
1 setlinewidth
0 0 0 nodecolor
271.2132 316.2635 21.4286 16.0303 ellipse_path stroke
0 0 0 nodecolor
14 /Times-Roman set_font
264.2132 312.5635 moveto 14 (42) alignedtext
grestore
% 42--41
gsave
.25 setlinewidth
0 0 0 edgecolor
newpath 284.3501 329.4004 moveto
291.6414 336.6917 300.6854 345.7357 307.9904 353.0407 curveto
stroke
grestore
% 85
gsave
1 setlinewidth
0 0 0 nodecolor
321.2132 266.2635 21.4286 16.0303 ellipse_path stroke
0 0 0 nodecolor
14 /Times-Roman set_font
314.2132 262.5635 moveto 14 (85) alignedtext
grestore
% 42--85
gsave
.25 setlinewidth
0 0 0 edgecolor
newpath 284.3501 303.1265 moveto
291.6414 295.8352 300.6854 286.7913 307.9904 279.4862 curveto
stroke
grestore
% 43
gsave
1 setlinewidth
0 0 0 nodecolor
221.2132 266.2635 21.4286 16.0303 ellipse_path stroke
0 0 0 nodecolor
14 /Times-Roman set_font
214.2132 262.5635 moveto 14 (43) alignedtext
grestore
% 43--42
gsave
.25 setlinewidth
0 0 0 edgecolor
newpath 234.3501 279.4004 moveto
241.6414 286.6917 250.6854 295.7357 257.9904 303.0407 curveto
stroke
grestore
% 86
gsave
1 setlinewidth
0 0 0 nodecolor
271.2132 216.2635 21.4286 16.0303 ellipse_path stroke
0 0 0 nodecolor
14 /Times-Roman set_font
264.2132 212.5635 moveto 14 (86) alignedtext
grestore
% 43--86
gsave
.25 setlinewidth
0 0 0 edgecolor
newpath 234.3501 253.1265 moveto
241.6414 245.8352 250.6854 236.7913 257.9904 229.4862 curveto
stroke
grestore
% 44
gsave
1 setlinewidth
0 0 0 nodecolor
171.2132 216.2635 21.4286 16.0303 ellipse_path stroke
0 0 0 nodecolor
14 /Times-Roman set_font
164.2132 212.5635 moveto 14 (44) alignedtext
grestore
% 44--43
gsave
.25 setlinewidth
0 0 0 edgecolor
newpath 184.3501 229.4004 moveto
191.6414 236.6917 200.6854 245.7357 207.9904 253.0407 curveto
stroke
grestore
% 87
gsave
1 setlinewidth
0 0 0 nodecolor
221.2132 166.2635 21.4286 16.0303 ellipse_path stroke
0 0 0 nodecolor
14 /Times-Roman set_font
214.2132 162.5635 moveto 14 (87) alignedtext
grestore
% 44--87
gsave
.25 setlinewidth
0 0 0 edgecolor
newpath 184.3501 203.1265 moveto
191.6414 195.8352 200.6854 186.7913 207.9904 179.4862 curveto
stroke
grestore
% 45
gsave
1 setlinewidth
0 0 0 nodecolor
121.2132 166.2635 21.4286 16.0303 ellipse_path stroke
0 0 0 nodecolor
14 /Times-Roman set_font
114.2132 162.5635 moveto 14 (45) alignedtext
grestore
% 45--44
gsave
.25 setlinewidth
0 0 0 edgecolor
newpath 134.3501 179.4004 moveto
141.6414 186.6917 150.6854 195.7357 157.9904 203.0407 curveto
stroke
grestore
% 88
gsave
1 setlinewidth
0 0 0 nodecolor
171.2132 116.2635 21.4286 16.0303 ellipse_path stroke
0 0 0 nodecolor
14 /Times-Roman set_font
164.2132 112.5635 moveto 14 (88) alignedtext
grestore
% 45--88
gsave
.25 setlinewidth
0 0 0 edgecolor
newpath 134.3501 153.1265 moveto
141.6414 145.8352 150.6854 136.7913 157.9904 129.4862 curveto
stroke
grestore
% 46
gsave
1 setlinewidth
0 0 0 nodecolor
71.2132 116.2635 21.4286 16.0303 ellipse_path stroke
0 0 0 nodecolor
14 /Times-Roman set_font
64.2132 112.5635 moveto 14 (46) alignedtext
grestore
% 46--45
gsave
.25 setlinewidth
0 0 0 edgecolor
newpath 84.3501 129.4004 moveto
91.6414 136.6917 100.6854 145.7357 107.9904 153.0407 curveto
stroke
grestore
% 46--88
gsave
.25 setlinewidth
0 0 0 edgecolor
newpath 92.9117 116.2635 moveto
109.7999 116.2635 133.1112 116.2635 149.9006 116.2635 curveto
stroke
grestore
% 47--46
gsave
.25 setlinewidth
0 0 0 edgecolor
newpath 34.3501 79.4004 moveto
41.6414 86.6917 50.6854 95.7357 57.9904 103.0407 curveto
stroke
grestore
% 48
gsave
1 setlinewidth
0 0 0 nodecolor
221.2132 66.2635 21.4286 16.0303 ellipse_path stroke
0 0 0 nodecolor
14 /Times-Roman set_font
214.2132 62.5635 moveto 14 (48) alignedtext
grestore
% 48--1
gsave
.25 setlinewidth
0 0 0 edgecolor
newpath 208.0763 53.1265 moveto
200.2063 45.2565 190.2944 35.3447 182.7313 27.7815 curveto
stroke
grestore
% 49
gsave
1 setlinewidth
0 0 0 nodecolor
321.2132 66.2635 21.4286 16.0303 ellipse_path stroke
0 0 0 nodecolor
14 /Times-Roman set_font
314.2132 62.5635 moveto 14 (49) alignedtext
grestore
% 49--2
gsave
.25 setlinewidth
0 0 0 edgecolor
newpath 308.0763 53.1265 moveto
300.2063 45.2565 290.2944 35.3447 282.7313 27.7815 curveto
stroke
grestore
% 49--48
gsave
.25 setlinewidth
0 0 0 edgecolor
newpath 299.5147 66.2635 moveto
282.6265 66.2635 259.3152 66.2635 242.5258 66.2635 curveto
stroke
grestore
% 50
gsave
1 setlinewidth
0 0 0 nodecolor
421.2132 66.2635 21.4286 16.0303 ellipse_path stroke
0 0 0 nodecolor
14 /Times-Roman set_font
414.2132 62.5635 moveto 14 (50) alignedtext
grestore
% 50--3
gsave
.25 setlinewidth
0 0 0 edgecolor
newpath 408.0763 53.1265 moveto
400.2063 45.2565 390.2944 35.3447 382.7313 27.7815 curveto
stroke
grestore
% 50--49
gsave
.25 setlinewidth
0 0 0 edgecolor
newpath 399.5147 66.2635 moveto
382.6265 66.2635 359.3152 66.2635 342.5258 66.2635 curveto
stroke
grestore
% 51
gsave
1 setlinewidth
0 0 0 nodecolor
521.2132 66.2635 21.4286 16.0303 ellipse_path stroke
0 0 0 nodecolor
14 /Times-Roman set_font
514.2132 62.5635 moveto 14 (51) alignedtext
grestore
% 51--4
gsave
.25 setlinewidth
0 0 0 edgecolor
newpath 508.0763 53.1265 moveto
500.2063 45.2565 490.2944 35.3447 482.7313 27.7815 curveto
stroke
grestore
% 51--50
gsave
.25 setlinewidth
0 0 0 edgecolor
newpath 499.5147 66.2635 moveto
482.6265 66.2635 459.3152 66.2635 442.5258 66.2635 curveto
stroke
grestore
% 52
gsave
1 setlinewidth
0 0 0 nodecolor
621.2132 66.2635 21.4286 16.0303 ellipse_path stroke
0 0 0 nodecolor
14 /Times-Roman set_font
614.2132 62.5635 moveto 14 (52) alignedtext
grestore
% 52--5
gsave
.25 setlinewidth
0 0 0 edgecolor
newpath 608.0763 53.1265 moveto
600.2063 45.2565 590.2944 35.3447 582.7313 27.7815 curveto
stroke
grestore
% 52--51
gsave
.25 setlinewidth
0 0 0 edgecolor
newpath 599.5147 66.2635 moveto
582.6265 66.2635 559.3152 66.2635 542.5258 66.2635 curveto
stroke
grestore
% 53
gsave
1 setlinewidth
0 0 0 nodecolor
721.2132 66.2635 21.4286 16.0303 ellipse_path stroke
0 0 0 nodecolor
14 /Times-Roman set_font
714.2132 62.5635 moveto 14 (53) alignedtext
grestore
% 53--6
gsave
.25 setlinewidth
0 0 0 edgecolor
newpath 708.0763 53.1265 moveto
700.2063 45.2565 690.2944 35.3447 682.7313 27.7815 curveto
stroke
grestore
% 53--52
gsave
.25 setlinewidth
0 0 0 edgecolor
newpath 699.5147 66.2635 moveto
682.6265 66.2635 659.3152 66.2635 642.5258 66.2635 curveto
stroke
grestore
% 54
gsave
1 setlinewidth
0 0 0 nodecolor
821.2132 66.2635 21.4286 16.0303 ellipse_path stroke
0 0 0 nodecolor
14 /Times-Roman set_font
814.2132 62.5635 moveto 14 (54) alignedtext
grestore
% 54--7
gsave
.25 setlinewidth
0 0 0 edgecolor
newpath 808.0763 53.1265 moveto
800.2063 45.2565 790.2944 35.3447 782.7313 27.7815 curveto
stroke
grestore
% 54--53
gsave
.25 setlinewidth
0 0 0 edgecolor
newpath 799.5147 66.2635 moveto
782.6265 66.2635 759.3152 66.2635 742.5258 66.2635 curveto
stroke
grestore
% 55
gsave
1 setlinewidth
0 0 0 nodecolor
921.2132 66.2635 21.4286 16.0303 ellipse_path stroke
0 0 0 nodecolor
14 /Times-Roman set_font
914.2132 62.5635 moveto 14 (55) alignedtext
grestore
% 55--8
gsave
.25 setlinewidth
0 0 0 edgecolor
newpath 908.0763 53.1265 moveto
900.2063 45.2565 890.2944 35.3447 882.7313 27.7815 curveto
stroke
grestore
% 55--54
gsave
.25 setlinewidth
0 0 0 edgecolor
newpath 899.5147 66.2635 moveto
882.6265 66.2635 859.3152 66.2635 842.5258 66.2635 curveto
stroke
grestore
% 56
gsave
1 setlinewidth
0 0 0 nodecolor
1021.2132 66.2635 21.4286 16.0303 ellipse_path stroke
0 0 0 nodecolor
14 /Times-Roman set_font
1014.2132 62.5635 moveto 14 (56) alignedtext
grestore
% 56--9
gsave
.25 setlinewidth
0 0 0 edgecolor
newpath 1008.0763 53.1265 moveto
1000.2063 45.2565 990.2944 35.3447 982.7313 27.7815 curveto
stroke
grestore
% 56--55
gsave
.25 setlinewidth
0 0 0 edgecolor
newpath 999.5147 66.2635 moveto
982.6265 66.2635 959.3152 66.2635 942.5258 66.2635 curveto
stroke
grestore
% 57
gsave
1 setlinewidth
0 0 0 nodecolor
1121.2132 66.2635 21.4286 16.0303 ellipse_path stroke
0 0 0 nodecolor
14 /Times-Roman set_font
1114.2132 62.5635 moveto 14 (57) alignedtext
grestore
% 57--10
gsave
.25 setlinewidth
0 0 0 edgecolor
newpath 1108.0763 53.1265 moveto
1100.785 45.8352 1091.741 36.7913 1084.436 29.4862 curveto
stroke
grestore
% 57--56
gsave
.25 setlinewidth
0 0 0 edgecolor
newpath 1099.5147 66.2635 moveto
1082.6265 66.2635 1059.3152 66.2635 1042.5258 66.2635 curveto
stroke
grestore
% 58
gsave
1 setlinewidth
0 0 0 nodecolor
1221.2132 66.2635 21.4286 16.0303 ellipse_path stroke
0 0 0 nodecolor
14 /Times-Roman set_font
1214.2132 62.5635 moveto 14 (58) alignedtext
grestore
% 58--11
gsave
.25 setlinewidth
0 0 0 edgecolor
newpath 1208.0763 53.1265 moveto
1200.785 45.8352 1191.741 36.7913 1184.436 29.4862 curveto
stroke
grestore
% 58--57
gsave
.25 setlinewidth
0 0 0 edgecolor
newpath 1199.5147 66.2635 moveto
1182.6265 66.2635 1159.3152 66.2635 1142.5258 66.2635 curveto
stroke
grestore
% 59
gsave
1 setlinewidth
0 0 0 nodecolor
1321.2132 66.2635 21.4286 16.0303 ellipse_path stroke
0 0 0 nodecolor
14 /Times-Roman set_font
1314.2132 62.5635 moveto 14 (59) alignedtext
grestore
% 59--12
gsave
.25 setlinewidth
0 0 0 edgecolor
newpath 1308.0763 53.1265 moveto
1300.785 45.8352 1291.741 36.7913 1284.436 29.4862 curveto
stroke
grestore
% 59--58
gsave
.25 setlinewidth
0 0 0 edgecolor
newpath 1299.5147 66.2635 moveto
1282.6265 66.2635 1259.3152 66.2635 1242.5258 66.2635 curveto
stroke
grestore
% 100
gsave
1 setlinewidth
0 0 0 nodecolor
1371.2132 116.2635 26.3269 16.0303 ellipse_path stroke
0 0 0 nodecolor
14 /Times-Roman set_font
1360.7132 112.5635 moveto 21 (100) alignedtext
grestore
% 59--100
gsave
.25 setlinewidth
0 0 0 edgecolor
newpath 1334.3501 79.4004 moveto
1341.41 86.4602 1350.113 95.1632 1357.2896 102.3398 curveto
stroke
grestore
% 60
gsave
1 setlinewidth
0 0 0 nodecolor
1421.2132 66.2635 21.4286 16.0303 ellipse_path stroke
0 0 0 nodecolor
14 /Times-Roman set_font
1414.2132 62.5635 moveto 14 (60) alignedtext
grestore
% 60--13
gsave
.25 setlinewidth
0 0 0 edgecolor
newpath 1408.0763 53.1265 moveto
1400.785 45.8352 1391.741 36.7913 1384.436 29.4862 curveto
stroke
grestore
% 60--14
gsave
.25 setlinewidth
0 0 0 edgecolor
newpath 1434.3501 53.1265 moveto
1441.6414 45.8352 1450.6854 36.7913 1457.9904 29.4862 curveto
stroke
grestore
% 60--100
gsave
.25 setlinewidth
0 0 0 edgecolor
newpath 1408.0763 79.4004 moveto
1401.0164 86.4602 1392.3135 95.1632 1385.1368 102.3398 curveto
stroke
grestore
% 62--61
gsave
.25 setlinewidth
0 0 0 edgecolor
newpath 1484.3501 103.1265 moveto
1491.6414 95.8352 1500.6854 86.7913 1507.9904 79.4862 curveto
stroke
grestore
% 63--62
gsave
.25 setlinewidth
0 0 0 edgecolor
newpath 1434.3501 153.1265 moveto
1441.6414 145.8352 1450.6854 136.7913 1457.9904 129.4862 curveto
stroke
grestore
% 64--63
gsave
.25 setlinewidth
0 0 0 edgecolor
newpath 1384.3501 203.1265 moveto
1391.6414 195.8352 1400.6854 186.7913 1407.9904 179.4862 curveto
stroke
grestore
% 65--64
gsave
.25 setlinewidth
0 0 0 edgecolor
newpath 1334.3501 253.1265 moveto
1341.6414 245.8352 1350.6854 236.7913 1357.9904 229.4862 curveto
stroke
grestore
% 66--65
gsave
.25 setlinewidth
0 0 0 edgecolor
newpath 1284.3501 303.1265 moveto
1291.6414 295.8352 1300.6854 286.7913 1307.9904 279.4862 curveto
stroke
grestore
% 67--66
gsave
.25 setlinewidth
0 0 0 edgecolor
newpath 1234.3501 353.1265 moveto
1241.6414 345.8352 1250.6854 336.7913 1257.9904 329.4862 curveto
stroke
grestore
% 68--67
gsave
.25 setlinewidth
0 0 0 edgecolor
newpath 1184.3501 403.1265 moveto
1191.6414 395.8352 1200.6854 386.7913 1207.9904 379.4862 curveto
stroke
grestore
% 69--68
gsave
.25 setlinewidth
0 0 0 edgecolor
newpath 1134.3501 453.1265 moveto
1141.6414 445.8352 1150.6854 436.7913 1157.9904 429.4862 curveto
stroke
grestore
% 70--69
gsave
.25 setlinewidth
0 0 0 edgecolor
newpath 1084.3501 503.1265 moveto
1091.6414 495.8352 1100.6854 486.7913 1107.9904 479.4862 curveto
stroke
grestore
% 71--70
gsave
.25 setlinewidth
0 0 0 edgecolor
newpath 1034.3501 553.1265 moveto
1041.6414 545.8352 1050.6854 536.7913 1057.9904 529.4862 curveto
stroke
grestore
% 72--71
gsave
.25 setlinewidth
0 0 0 edgecolor
newpath 984.3501 603.1265 moveto
991.6414 595.8352 1000.6854 586.7913 1007.9904 579.4862 curveto
stroke
grestore
% 73--72
gsave
.25 setlinewidth
0 0 0 edgecolor
newpath 934.3501 653.1265 moveto
941.6414 645.8352 950.6854 636.7913 957.9904 629.4862 curveto
stroke
grestore
% 111
gsave
1 setlinewidth
0 0 0 nodecolor
821.2132 666.2635 26.3269 16.0303 ellipse_path stroke
0 0 0 nodecolor
14 /Times-Roman set_font
810.7132 662.5635 moveto 21 (111) alignedtext
grestore
% 73--111
gsave
.25 setlinewidth
0 0 0 edgecolor
newpath 899.5147 666.2635 moveto
884.2349 666.2635 863.6972 666.2635 847.4891 666.2635 curveto
stroke
grestore
% 74--111
gsave
.25 setlinewidth
0 0 0 edgecolor
newpath 858.0763 703.1265 moveto
851.0164 696.0667 842.3135 687.3637 835.1368 680.1871 curveto
stroke
grestore
% 76--75
gsave
.25 setlinewidth
0 0 0 edgecolor
newpath 784.3501 729.4004 moveto
791.6414 736.6917 800.6854 745.7357 807.9904 753.0407 curveto
stroke
grestore
% 77--76
gsave
.25 setlinewidth
0 0 0 edgecolor
newpath 734.3501 679.4004 moveto
741.6414 686.6917 750.6854 695.7357 757.9904 703.0407 curveto
stroke
grestore
% 78--77
gsave
.25 setlinewidth
0 0 0 edgecolor
newpath 684.3501 629.4004 moveto
691.6414 636.6917 700.6854 645.7357 707.9904 653.0407 curveto
stroke
grestore
% 79--78
gsave
.25 setlinewidth
0 0 0 edgecolor
newpath 634.3501 579.4004 moveto
641.6414 586.6917 650.6854 595.7357 657.9904 603.0407 curveto
stroke
grestore
% 80--79
gsave
.25 setlinewidth
0 0 0 edgecolor
newpath 584.3501 529.4004 moveto
591.6414 536.6917 600.6854 545.7357 607.9904 553.0407 curveto
stroke
grestore
% 81--80
gsave
.25 setlinewidth
0 0 0 edgecolor
newpath 534.3501 479.4004 moveto
541.6414 486.6917 550.6854 495.7357 557.9904 503.0407 curveto
stroke
grestore
% 82--81
gsave
.25 setlinewidth
0 0 0 edgecolor
newpath 484.3501 429.4004 moveto
491.6414 436.6917 500.6854 445.7357 507.9904 453.0407 curveto
stroke
grestore
% 83--82
gsave
.25 setlinewidth
0 0 0 edgecolor
newpath 434.3501 379.4004 moveto
441.6414 386.6917 450.6854 395.7357 457.9904 403.0407 curveto
stroke
grestore
% 84--83
gsave
.25 setlinewidth
0 0 0 edgecolor
newpath 384.3501 329.4004 moveto
391.6414 336.6917 400.6854 345.7357 407.9904 353.0407 curveto
stroke
grestore
% 85--84
gsave
.25 setlinewidth
0 0 0 edgecolor
newpath 334.3501 279.4004 moveto
341.6414 286.6917 350.6854 295.7357 357.9904 303.0407 curveto
stroke
grestore
% 86--85
gsave
.25 setlinewidth
0 0 0 edgecolor
newpath 284.3501 229.4004 moveto
291.6414 236.6917 300.6854 245.7357 307.9904 253.0407 curveto
stroke
grestore
% 87--86
gsave
.25 setlinewidth
0 0 0 edgecolor
newpath 234.3501 179.4004 moveto
241.6414 186.6917 250.6854 195.7357 257.9904 203.0407 curveto
stroke
grestore
% 122
gsave
1 setlinewidth
0 0 0 nodecolor
271.2132 116.2635 26.3269 16.0303 ellipse_path stroke
0 0 0 nodecolor
14 /Times-Roman set_font
260.7132 112.5635 moveto 21 (122) alignedtext
grestore
% 87--122
gsave
.25 setlinewidth
0 0 0 edgecolor
newpath 234.3501 153.1265 moveto
241.41 146.0667 250.113 137.3637 257.2896 130.1871 curveto
stroke
grestore
% 88--122
gsave
.25 setlinewidth
0 0 0 edgecolor
newpath 192.9117 116.2635 moveto
208.1915 116.2635 228.7292 116.2635 244.9373 116.2635 curveto
stroke
grestore
% 89
gsave
1 setlinewidth
0 0 0 nodecolor
121.2132 66.2635 21.4286 16.0303 ellipse_path stroke
0 0 0 nodecolor
14 /Times-Roman set_font
114.2132 62.5635 moveto 14 (89) alignedtext
grestore
% 89--0
gsave
.25 setlinewidth
0 0 0 edgecolor
newpath 108.0763 53.1265 moveto
100.2063 45.2565 90.2944 35.3447 82.7313 27.7815 curveto
stroke
grestore
% 89--47
gsave
.25 setlinewidth
0 0 0 edgecolor
newpath 99.5147 66.2635 moveto
82.6265 66.2635 59.3152 66.2635 42.5258 66.2635 curveto
stroke
grestore
% 89--48
gsave
.25 setlinewidth
0 0 0 edgecolor
newpath 142.9117 66.2635 moveto
159.7999 66.2635 183.1112 66.2635 199.9006 66.2635 curveto
stroke
grestore
% 90
gsave
1 setlinewidth
0 0 0 nodecolor
371.2132 116.2635 21.4286 16.0303 ellipse_path stroke
0 0 0 nodecolor
14 /Times-Roman set_font
364.2132 112.5635 moveto 14 (90) alignedtext
grestore
% 121
gsave
1 setlinewidth
0 0 0 nodecolor
321.2132 166.2635 26.3269 16.0303 ellipse_path stroke
0 0 0 nodecolor
14 /Times-Roman set_font
310.7132 162.5635 moveto 21 (121) alignedtext
grestore
% 90--121
gsave
.25 setlinewidth
0 0 0 edgecolor
newpath 358.0763 129.4004 moveto
351.0164 136.4602 342.3135 145.1632 335.1368 152.3398 curveto
stroke
grestore
% 91
gsave
1 setlinewidth
0 0 0 nodecolor
471.2132 116.2635 21.4286 16.0303 ellipse_path stroke
0 0 0 nodecolor
14 /Times-Roman set_font
464.2132 112.5635 moveto 14 (91) alignedtext
grestore
% 91--90
gsave
.25 setlinewidth
0 0 0 edgecolor
newpath 449.5147 116.2635 moveto
432.6265 116.2635 409.3152 116.2635 392.5258 116.2635 curveto
stroke
grestore
% 92
gsave
1 setlinewidth
0 0 0 nodecolor
571.2132 116.2635 21.4286 16.0303 ellipse_path stroke
0 0 0 nodecolor
14 /Times-Roman set_font
564.2132 112.5635 moveto 14 (92) alignedtext
grestore
% 92--91
gsave
.25 setlinewidth
0 0 0 edgecolor
newpath 549.5147 116.2635 moveto
532.6265 116.2635 509.3152 116.2635 492.5258 116.2635 curveto
stroke
grestore
% 93
gsave
1 setlinewidth
0 0 0 nodecolor
671.2132 116.2635 21.4286 16.0303 ellipse_path stroke
0 0 0 nodecolor
14 /Times-Roman set_font
664.2132 112.5635 moveto 14 (93) alignedtext
grestore
% 93--92
gsave
.25 setlinewidth
0 0 0 edgecolor
newpath 649.5147 116.2635 moveto
632.6265 116.2635 609.3152 116.2635 592.5258 116.2635 curveto
stroke
grestore
% 94
gsave
1 setlinewidth
0 0 0 nodecolor
771.2132 116.2635 21.4286 16.0303 ellipse_path stroke
0 0 0 nodecolor
14 /Times-Roman set_font
764.2132 112.5635 moveto 14 (94) alignedtext
grestore
% 94--93
gsave
.25 setlinewidth
0 0 0 edgecolor
newpath 749.5147 116.2635 moveto
732.6265 116.2635 709.3152 116.2635 692.5258 116.2635 curveto
stroke
grestore
% 95
gsave
1 setlinewidth
0 0 0 nodecolor
871.2132 116.2635 21.4286 16.0303 ellipse_path stroke
0 0 0 nodecolor
14 /Times-Roman set_font
864.2132 112.5635 moveto 14 (95) alignedtext
grestore
% 95--94
gsave
.25 setlinewidth
0 0 0 edgecolor
newpath 849.5147 116.2635 moveto
832.6265 116.2635 809.3152 116.2635 792.5258 116.2635 curveto
stroke
grestore
% 96
gsave
1 setlinewidth
0 0 0 nodecolor
971.2132 116.2635 21.4286 16.0303 ellipse_path stroke
0 0 0 nodecolor
14 /Times-Roman set_font
964.2132 112.5635 moveto 14 (96) alignedtext
grestore
% 96--95
gsave
.25 setlinewidth
0 0 0 edgecolor
newpath 949.5147 116.2635 moveto
932.6265 116.2635 909.3152 116.2635 892.5258 116.2635 curveto
stroke
grestore
% 97
gsave
1 setlinewidth
0 0 0 nodecolor
1071.2132 116.2635 21.4286 16.0303 ellipse_path stroke
0 0 0 nodecolor
14 /Times-Roman set_font
1064.2132 112.5635 moveto 14 (97) alignedtext
grestore
% 97--96
gsave
.25 setlinewidth
0 0 0 edgecolor
newpath 1049.5147 116.2635 moveto
1032.6265 116.2635 1009.3152 116.2635 992.5258 116.2635 curveto
stroke
grestore
% 98
gsave
1 setlinewidth
0 0 0 nodecolor
1171.2132 116.2635 21.4286 16.0303 ellipse_path stroke
0 0 0 nodecolor
14 /Times-Roman set_font
1164.2132 112.5635 moveto 14 (98) alignedtext
grestore
% 98--97
gsave
.25 setlinewidth
0 0 0 edgecolor
newpath 1149.5147 116.2635 moveto
1132.6265 116.2635 1109.3152 116.2635 1092.5258 116.2635 curveto
stroke
grestore
% 130
gsave
1 setlinewidth
0 0 0 nodecolor
1221.2132 166.2635 26.3269 16.0303 ellipse_path stroke
0 0 0 nodecolor
14 /Times-Roman set_font
1210.7132 162.5635 moveto 21 (130) alignedtext
grestore
% 98--130
gsave
.25 setlinewidth
0 0 0 edgecolor
newpath 1184.3501 129.4004 moveto
1191.41 136.4602 1200.113 145.1632 1207.2896 152.3398 curveto
stroke
grestore
% 99
gsave
1 setlinewidth
0 0 0 nodecolor
1271.2132 116.2635 21.4286 16.0303 ellipse_path stroke
0 0 0 nodecolor
14 /Times-Roman set_font
1264.2132 112.5635 moveto 14 (99) alignedtext
grestore
% 99--98
gsave
.25 setlinewidth
0 0 0 edgecolor
newpath 1249.5147 116.2635 moveto
1232.6265 116.2635 1209.3152 116.2635 1192.5258 116.2635 curveto
stroke
grestore
% 99--100
gsave
.25 setlinewidth
0 0 0 edgecolor
newpath 1292.9117 116.2635 moveto
1308.1915 116.2635 1328.7292 116.2635 1344.9373 116.2635 curveto
stroke
grestore
% 101
gsave
1 setlinewidth
0 0 0 nodecolor
1321.2132 166.2635 26.3269 16.0303 ellipse_path stroke
0 0 0 nodecolor
14 /Times-Roman set_font
1310.7132 162.5635 moveto 21 (101) alignedtext
grestore
% 101--99
gsave
.25 setlinewidth
0 0 0 edgecolor
newpath 1307.2854 152.3357 moveto
1300.1193 145.1695 1291.4321 136.4824 1284.3787 129.429 curveto
stroke
grestore
% 101--130
gsave
.25 setlinewidth
0 0 0 edgecolor
newpath 1294.9394 166.2635 moveto
1280.3567 166.2635 1262.2688 166.2635 1247.6587 166.2635 curveto
stroke
grestore
% 102
gsave
1 setlinewidth
0 0 0 nodecolor
1271.2132 216.2635 26.3269 16.0303 ellipse_path stroke
0 0 0 nodecolor
14 /Times-Roman set_font
1260.7132 212.5635 moveto 21 (102) alignedtext
grestore
% 102--101
gsave
.25 setlinewidth
0 0 0 edgecolor
newpath 1285.141 202.3357 moveto
1292.076 195.4007 1300.4354 187.0412 1307.3601 180.1166 curveto
stroke
grestore
% 131
gsave
1 setlinewidth
0 0 0 nodecolor
1171.2132 216.2635 26.3269 16.0303 ellipse_path stroke
0 0 0 nodecolor
14 /Times-Roman set_font
1160.7132 212.5635 moveto 21 (131) alignedtext
grestore
% 102--131
gsave
.25 setlinewidth
0 0 0 edgecolor
newpath 1244.9394 216.2635 moveto
1230.3567 216.2635 1212.2688 216.2635 1197.6587 216.2635 curveto
stroke
grestore
% 103
gsave
1 setlinewidth
0 0 0 nodecolor
1221.2132 266.2635 26.3269 16.0303 ellipse_path stroke
0 0 0 nodecolor
14 /Times-Roman set_font
1210.7132 262.5635 moveto 21 (103) alignedtext
grestore
% 103--102
gsave
.25 setlinewidth
0 0 0 edgecolor
newpath 1235.141 252.3357 moveto
1242.076 245.4007 1250.4354 237.0412 1257.3601 230.1166 curveto
stroke
grestore
% 132
gsave
1 setlinewidth
0 0 0 nodecolor
1121.2132 266.2635 26.3269 16.0303 ellipse_path stroke
0 0 0 nodecolor
14 /Times-Roman set_font
1110.7132 262.5635 moveto 21 (132) alignedtext
grestore
% 103--132
gsave
.25 setlinewidth
0 0 0 edgecolor
newpath 1194.9394 266.2635 moveto
1180.3567 266.2635 1162.2688 266.2635 1147.6587 266.2635 curveto
stroke
grestore
% 104
gsave
1 setlinewidth
0 0 0 nodecolor
1171.2132 316.2635 26.3269 16.0303 ellipse_path stroke
0 0 0 nodecolor
14 /Times-Roman set_font
1160.7132 312.5635 moveto 21 (104) alignedtext
grestore
% 104--103
gsave
.25 setlinewidth
0 0 0 edgecolor
newpath 1185.141 302.3357 moveto
1192.076 295.4007 1200.4354 287.0412 1207.3601 280.1166 curveto
stroke
grestore
% 133
gsave
1 setlinewidth
0 0 0 nodecolor
1071.2132 316.2635 26.3269 16.0303 ellipse_path stroke
0 0 0 nodecolor
14 /Times-Roman set_font
1060.7132 312.5635 moveto 21 (133) alignedtext
grestore
% 104--133
gsave
.25 setlinewidth
0 0 0 edgecolor
newpath 1144.9394 316.2635 moveto
1130.3567 316.2635 1112.2688 316.2635 1097.6587 316.2635 curveto
stroke
grestore
% 105
gsave
1 setlinewidth
0 0 0 nodecolor
1121.2132 366.2635 26.3269 16.0303 ellipse_path stroke
0 0 0 nodecolor
14 /Times-Roman set_font
1110.7132 362.5635 moveto 21 (105) alignedtext
grestore
% 105--104
gsave
.25 setlinewidth
0 0 0 edgecolor
newpath 1135.141 352.3357 moveto
1142.076 345.4007 1150.4354 337.0412 1157.3601 330.1166 curveto
stroke
grestore
% 134
gsave
1 setlinewidth
0 0 0 nodecolor
1021.2132 366.2635 26.3269 16.0303 ellipse_path stroke
0 0 0 nodecolor
14 /Times-Roman set_font
1010.7132 362.5635 moveto 21 (134) alignedtext
grestore
% 105--134
gsave
.25 setlinewidth
0 0 0 edgecolor
newpath 1094.9394 366.2635 moveto
1080.3567 366.2635 1062.2688 366.2635 1047.6587 366.2635 curveto
stroke
grestore
% 106
gsave
1 setlinewidth
0 0 0 nodecolor
1071.2132 416.2635 26.3269 16.0303 ellipse_path stroke
0 0 0 nodecolor
14 /Times-Roman set_font
1060.7132 412.5635 moveto 21 (106) alignedtext
grestore
% 106--105
gsave
.25 setlinewidth
0 0 0 edgecolor
newpath 1085.141 402.3357 moveto
1092.076 395.4007 1100.4354 387.0412 1107.3601 380.1166 curveto
stroke
grestore
% 135
gsave
1 setlinewidth
0 0 0 nodecolor
971.2132 416.2635 26.3269 16.0303 ellipse_path stroke
0 0 0 nodecolor
14 /Times-Roman set_font
960.7132 412.5635 moveto 21 (135) alignedtext
grestore
% 106--135
gsave
.25 setlinewidth
0 0 0 edgecolor
newpath 1044.9394 416.2635 moveto
1030.3567 416.2635 1012.2688 416.2635 997.6587 416.2635 curveto
stroke
grestore
% 107
gsave
1 setlinewidth
0 0 0 nodecolor
1021.2132 466.2635 26.3269 16.0303 ellipse_path stroke
0 0 0 nodecolor
14 /Times-Roman set_font
1010.7132 462.5635 moveto 21 (107) alignedtext
grestore
% 107--106
gsave
.25 setlinewidth
0 0 0 edgecolor
newpath 1035.141 452.3357 moveto
1042.076 445.4007 1050.4354 437.0412 1057.3601 430.1166 curveto
stroke
grestore
% 136
gsave
1 setlinewidth
0 0 0 nodecolor
921.2132 466.2635 26.3269 16.0303 ellipse_path stroke
0 0 0 nodecolor
14 /Times-Roman set_font
910.7132 462.5635 moveto 21 (136) alignedtext
grestore
% 107--136
gsave
.25 setlinewidth
0 0 0 edgecolor
newpath 994.9394 466.2635 moveto
980.3567 466.2635 962.2688 466.2635 947.6587 466.2635 curveto
stroke
grestore
% 108
gsave
1 setlinewidth
0 0 0 nodecolor
971.2132 516.2635 26.3269 16.0303 ellipse_path stroke
0 0 0 nodecolor
14 /Times-Roman set_font
960.7132 512.5635 moveto 21 (108) alignedtext
grestore
% 108--107
gsave
.25 setlinewidth
0 0 0 edgecolor
newpath 985.141 502.3357 moveto
992.076 495.4007 1000.4354 487.0412 1007.3601 480.1166 curveto
stroke
grestore
% 137
gsave
1 setlinewidth
0 0 0 nodecolor
871.2132 516.2635 26.3269 16.0303 ellipse_path stroke
0 0 0 nodecolor
14 /Times-Roman set_font
860.7132 512.5635 moveto 21 (137) alignedtext
grestore
% 108--137
gsave
.25 setlinewidth
0 0 0 edgecolor
newpath 944.9394 516.2635 moveto
930.3567 516.2635 912.2688 516.2635 897.6587 516.2635 curveto
stroke
grestore
% 109
gsave
1 setlinewidth
0 0 0 nodecolor
921.2132 566.2635 26.3269 16.0303 ellipse_path stroke
0 0 0 nodecolor
14 /Times-Roman set_font
910.7132 562.5635 moveto 21 (109) alignedtext
grestore
% 109--108
gsave
.25 setlinewidth
0 0 0 edgecolor
newpath 935.141 552.3357 moveto
942.076 545.4007 950.4354 537.0412 957.3601 530.1166 curveto
stroke
grestore
% 138
gsave
1 setlinewidth
0 0 0 nodecolor
821.2132 566.2635 26.3269 16.0303 ellipse_path stroke
0 0 0 nodecolor
14 /Times-Roman set_font
810.7132 562.5635 moveto 21 (138) alignedtext
grestore
% 109--138
gsave
.25 setlinewidth
0 0 0 edgecolor
newpath 894.9394 566.2635 moveto
880.3567 566.2635 862.2688 566.2635 847.6587 566.2635 curveto
stroke
grestore
% 110
gsave
1 setlinewidth
0 0 0 nodecolor
871.2132 616.2635 26.3269 16.0303 ellipse_path stroke
0 0 0 nodecolor
14 /Times-Roman set_font
860.7132 612.5635 moveto 21 (110) alignedtext
grestore
% 110--109
gsave
.25 setlinewidth
0 0 0 edgecolor
newpath 885.141 602.3357 moveto
892.076 595.4007 900.4354 587.0412 907.3601 580.1166 curveto
stroke
grestore
% 110--111
gsave
.25 setlinewidth
0 0 0 edgecolor
newpath 857.2854 630.1912 moveto
850.3504 637.1262 841.991 645.4857 835.0663 652.4104 curveto
stroke
grestore
% 112
gsave
1 setlinewidth
0 0 0 nodecolor
771.2132 616.2635 26.3269 16.0303 ellipse_path stroke
0 0 0 nodecolor
14 /Times-Roman set_font
760.7132 612.5635 moveto 21 (112) alignedtext
grestore
% 112--110
gsave
.25 setlinewidth
0 0 0 edgecolor
newpath 797.487 616.2635 moveto
812.0697 616.2635 830.1576 616.2635 844.7677 616.2635 curveto
stroke
grestore
% 112--138
gsave
.25 setlinewidth
0 0 0 edgecolor
newpath 785.141 602.3357 moveto
792.076 595.4007 800.4354 587.0412 807.3601 580.1166 curveto
stroke
grestore
% 113
gsave
1 setlinewidth
0 0 0 nodecolor
721.2132 566.2635 26.3269 16.0303 ellipse_path stroke
0 0 0 nodecolor
14 /Times-Roman set_font
710.7132 562.5635 moveto 21 (113) alignedtext
grestore
% 113--112
gsave
.25 setlinewidth
0 0 0 edgecolor
newpath 735.141 580.1912 moveto
742.076 587.1262 750.4354 595.4857 757.3601 602.4104 curveto
stroke
grestore
% 139
gsave
1 setlinewidth
0 0 0 nodecolor
771.2132 516.2635 26.3269 16.0303 ellipse_path stroke
0 0 0 nodecolor
14 /Times-Roman set_font
760.7132 512.5635 moveto 21 (139) alignedtext
grestore
% 113--139
gsave
.25 setlinewidth
0 0 0 edgecolor
newpath 735.141 552.3357 moveto
742.076 545.4007 750.4354 537.0412 757.3601 530.1166 curveto
stroke
grestore
% 114
gsave
1 setlinewidth
0 0 0 nodecolor
671.2132 516.2635 26.3269 16.0303 ellipse_path stroke
0 0 0 nodecolor
14 /Times-Roman set_font
660.7132 512.5635 moveto 21 (114) alignedtext
grestore
% 114--113
gsave
.25 setlinewidth
0 0 0 edgecolor
newpath 685.141 530.1912 moveto
692.076 537.1262 700.4354 545.4857 707.3601 552.4104 curveto
stroke
grestore
% 140
gsave
1 setlinewidth
0 0 0 nodecolor
721.2132 466.2635 26.3269 16.0303 ellipse_path stroke
0 0 0 nodecolor
14 /Times-Roman set_font
710.7132 462.5635 moveto 21 (140) alignedtext
grestore
% 114--140
gsave
.25 setlinewidth
0 0 0 edgecolor
newpath 685.141 502.3357 moveto
692.076 495.4007 700.4354 487.0412 707.3601 480.1166 curveto
stroke
grestore
% 115
gsave
1 setlinewidth
0 0 0 nodecolor
621.2132 466.2635 26.3269 16.0303 ellipse_path stroke
0 0 0 nodecolor
14 /Times-Roman set_font
610.7132 462.5635 moveto 21 (115) alignedtext
grestore
% 115--114
gsave
.25 setlinewidth
0 0 0 edgecolor
newpath 635.141 480.1912 moveto
642.076 487.1262 650.4354 495.4857 657.3601 502.4104 curveto
stroke
grestore
% 141
gsave
1 setlinewidth
0 0 0 nodecolor
671.2132 416.2635 26.3269 16.0303 ellipse_path stroke
0 0 0 nodecolor
14 /Times-Roman set_font
660.7132 412.5635 moveto 21 (141) alignedtext
grestore
% 115--141
gsave
.25 setlinewidth
0 0 0 edgecolor
newpath 635.141 452.3357 moveto
642.076 445.4007 650.4354 437.0412 657.3601 430.1166 curveto
stroke
grestore
% 116
gsave
1 setlinewidth
0 0 0 nodecolor
571.2132 416.2635 26.3269 16.0303 ellipse_path stroke
0 0 0 nodecolor
14 /Times-Roman set_font
560.7132 412.5635 moveto 21 (116) alignedtext
grestore
% 116--115
gsave
.25 setlinewidth
0 0 0 edgecolor
newpath 585.141 430.1912 moveto
592.076 437.1262 600.4354 445.4857 607.3601 452.4104 curveto
stroke
grestore
% 142
gsave
1 setlinewidth
0 0 0 nodecolor
621.2132 366.2635 26.3269 16.0303 ellipse_path stroke
0 0 0 nodecolor
14 /Times-Roman set_font
610.7132 362.5635 moveto 21 (142) alignedtext
grestore
% 116--142
gsave
.25 setlinewidth
0 0 0 edgecolor
newpath 585.141 402.3357 moveto
592.076 395.4007 600.4354 387.0412 607.3601 380.1166 curveto
stroke
grestore
% 117
gsave
1 setlinewidth
0 0 0 nodecolor
521.2132 366.2635 26.3269 16.0303 ellipse_path stroke
0 0 0 nodecolor
14 /Times-Roman set_font
510.7132 362.5635 moveto 21 (117) alignedtext
grestore
% 117--116
gsave
.25 setlinewidth
0 0 0 edgecolor
newpath 535.141 380.1912 moveto
542.076 387.1262 550.4354 395.4857 557.3601 402.4104 curveto
stroke
grestore
% 143
gsave
1 setlinewidth
0 0 0 nodecolor
571.2132 316.2635 26.3269 16.0303 ellipse_path stroke
0 0 0 nodecolor
14 /Times-Roman set_font
560.7132 312.5635 moveto 21 (143) alignedtext
grestore
% 117--143
gsave
.25 setlinewidth
0 0 0 edgecolor
newpath 535.141 352.3357 moveto
542.076 345.4007 550.4354 337.0412 557.3601 330.1166 curveto
stroke
grestore
% 118
gsave
1 setlinewidth
0 0 0 nodecolor
471.2132 316.2635 26.3269 16.0303 ellipse_path stroke
0 0 0 nodecolor
14 /Times-Roman set_font
460.7132 312.5635 moveto 21 (118) alignedtext
grestore
% 118--117
gsave
.25 setlinewidth
0 0 0 edgecolor
newpath 485.141 330.1912 moveto
492.076 337.1262 500.4354 345.4857 507.3601 352.4104 curveto
stroke
grestore
% 144
gsave
1 setlinewidth
0 0 0 nodecolor
521.2132 266.2635 26.3269 16.0303 ellipse_path stroke
0 0 0 nodecolor
14 /Times-Roman set_font
510.7132 262.5635 moveto 21 (144) alignedtext
grestore
% 118--144
gsave
.25 setlinewidth
0 0 0 edgecolor
newpath 485.141 302.3357 moveto
492.076 295.4007 500.4354 287.0412 507.3601 280.1166 curveto
stroke
grestore
% 119
gsave
1 setlinewidth
0 0 0 nodecolor
421.2132 266.2635 26.3269 16.0303 ellipse_path stroke
0 0 0 nodecolor
14 /Times-Roman set_font
410.7132 262.5635 moveto 21 (119) alignedtext
grestore
% 119--118
gsave
.25 setlinewidth
0 0 0 edgecolor
newpath 435.141 280.1912 moveto
442.076 287.1262 450.4354 295.4857 457.3601 302.4104 curveto
stroke
grestore
% 145
gsave
1 setlinewidth
0 0 0 nodecolor
471.2132 216.2635 26.3269 16.0303 ellipse_path stroke
0 0 0 nodecolor
14 /Times-Roman set_font
460.7132 212.5635 moveto 21 (145) alignedtext
grestore
% 119--145
gsave
.25 setlinewidth
0 0 0 edgecolor
newpath 435.141 252.3357 moveto
442.076 245.4007 450.4354 237.0412 457.3601 230.1166 curveto
stroke
grestore
% 120
gsave
1 setlinewidth
0 0 0 nodecolor
371.2132 216.2635 26.3269 16.0303 ellipse_path stroke
0 0 0 nodecolor
14 /Times-Roman set_font
360.7132 212.5635 moveto 21 (120) alignedtext
grestore
% 120--119
gsave
.25 setlinewidth
0 0 0 edgecolor
newpath 385.141 230.1912 moveto
392.076 237.1262 400.4354 245.4857 407.3601 252.4104 curveto
stroke
grestore
% 121--120
gsave
.25 setlinewidth
0 0 0 edgecolor
newpath 335.141 180.1912 moveto
342.076 187.1262 350.4354 195.4857 357.3601 202.4104 curveto
stroke
grestore
% 121--122
gsave
.25 setlinewidth
0 0 0 edgecolor
newpath 307.2854 152.3357 moveto
300.3504 145.4007 291.991 137.0412 285.0663 130.1166 curveto
stroke
grestore
% 123
gsave
1 setlinewidth
0 0 0 nodecolor
521.2132 166.2635 26.3269 16.0303 ellipse_path stroke
0 0 0 nodecolor
14 /Times-Roman set_font
510.7132 162.5635 moveto 21 (123) alignedtext
grestore
% 123--91
gsave
.25 setlinewidth
0 0 0 edgecolor
newpath 507.2854 152.3357 moveto
500.1193 145.1695 491.4321 136.4824 484.3787 129.429 curveto
stroke
grestore
% 124
gsave
1 setlinewidth
0 0 0 nodecolor
621.2132 166.2635 26.3269 16.0303 ellipse_path stroke
0 0 0 nodecolor
14 /Times-Roman set_font
610.7132 162.5635 moveto 21 (124) alignedtext
grestore
% 124--92
gsave
.25 setlinewidth
0 0 0 edgecolor
newpath 607.2854 152.3357 moveto
600.1193 145.1695 591.4321 136.4824 584.3787 129.429 curveto
stroke
grestore
% 124--123
gsave
.25 setlinewidth
0 0 0 edgecolor
newpath 594.9394 166.2635 moveto
580.3567 166.2635 562.2688 166.2635 547.6587 166.2635 curveto
stroke
grestore
% 125
gsave
1 setlinewidth
0 0 0 nodecolor
721.2132 166.2635 26.3269 16.0303 ellipse_path stroke
0 0 0 nodecolor
14 /Times-Roman set_font
710.7132 162.5635 moveto 21 (125) alignedtext
grestore
% 125--93
gsave
.25 setlinewidth
0 0 0 edgecolor
newpath 707.2854 152.3357 moveto
700.1193 145.1695 691.4321 136.4824 684.3787 129.429 curveto
stroke
grestore
% 125--124
gsave
.25 setlinewidth
0 0 0 edgecolor
newpath 694.9394 166.2635 moveto
680.3567 166.2635 662.2688 166.2635 647.6587 166.2635 curveto
stroke
grestore
% 126
gsave
1 setlinewidth
0 0 0 nodecolor
821.2132 166.2635 26.3269 16.0303 ellipse_path stroke
0 0 0 nodecolor
14 /Times-Roman set_font
810.7132 162.5635 moveto 21 (126) alignedtext
grestore
% 126--94
gsave
.25 setlinewidth
0 0 0 edgecolor
newpath 807.2854 152.3357 moveto
800.1193 145.1695 791.4321 136.4824 784.3787 129.429 curveto
stroke
grestore
% 126--125
gsave
.25 setlinewidth
0 0 0 edgecolor
newpath 794.9394 166.2635 moveto
780.3567 166.2635 762.2688 166.2635 747.6587 166.2635 curveto
stroke
grestore
% 127
gsave
1 setlinewidth
0 0 0 nodecolor
921.2132 166.2635 26.3269 16.0303 ellipse_path stroke
0 0 0 nodecolor
14 /Times-Roman set_font
910.7132 162.5635 moveto 21 (127) alignedtext
grestore
% 127--95
gsave
.25 setlinewidth
0 0 0 edgecolor
newpath 907.2854 152.3357 moveto
900.1193 145.1695 891.4321 136.4824 884.3787 129.429 curveto
stroke
grestore
% 127--126
gsave
.25 setlinewidth
0 0 0 edgecolor
newpath 894.9394 166.2635 moveto
880.3567 166.2635 862.2688 166.2635 847.6587 166.2635 curveto
stroke
grestore
% 128
gsave
1 setlinewidth
0 0 0 nodecolor
1021.2132 166.2635 26.3269 16.0303 ellipse_path stroke
0 0 0 nodecolor
14 /Times-Roman set_font
1010.7132 162.5635 moveto 21 (128) alignedtext
grestore
% 128--96
gsave
.25 setlinewidth
0 0 0 edgecolor
newpath 1007.2854 152.3357 moveto
1000.1193 145.1695 991.4321 136.4824 984.3787 129.429 curveto
stroke
grestore
% 128--127
gsave
.25 setlinewidth
0 0 0 edgecolor
newpath 994.9394 166.2635 moveto
980.3567 166.2635 962.2688 166.2635 947.6587 166.2635 curveto
stroke
grestore
% 129
gsave
1 setlinewidth
0 0 0 nodecolor
1121.2132 166.2635 26.3269 16.0303 ellipse_path stroke
0 0 0 nodecolor
14 /Times-Roman set_font
1110.7132 162.5635 moveto 21 (129) alignedtext
grestore
% 129--97
gsave
.25 setlinewidth
0 0 0 edgecolor
newpath 1107.2854 152.3357 moveto
1100.1193 145.1695 1091.4321 136.4824 1084.3787 129.429 curveto
stroke
grestore
% 129--128
gsave
.25 setlinewidth
0 0 0 edgecolor
newpath 1094.9394 166.2635 moveto
1080.3567 166.2635 1062.2688 166.2635 1047.6587 166.2635 curveto
stroke
grestore
% 151
gsave
1 setlinewidth
0 0 0 nodecolor
1071.2132 216.2635 26.3269 16.0303 ellipse_path stroke
0 0 0 nodecolor
14 /Times-Roman set_font
1060.7132 212.5635 moveto 21 (151) alignedtext
grestore
% 129--151
gsave
.25 setlinewidth
0 0 0 edgecolor
newpath 1107.2854 180.1912 moveto
1100.3504 187.1262 1091.991 195.4857 1085.0663 202.4104 curveto
stroke
grestore
% 131--130
gsave
.25 setlinewidth
0 0 0 edgecolor
newpath 1185.141 202.3357 moveto
1192.076 195.4007 1200.4354 187.0412 1207.3601 180.1166 curveto
stroke
grestore
% 132--131
gsave
.25 setlinewidth
0 0 0 edgecolor
newpath 1135.141 252.3357 moveto
1142.076 245.4007 1150.4354 237.0412 1157.3601 230.1166 curveto
stroke
grestore
% 133--132
gsave
.25 setlinewidth
0 0 0 edgecolor
newpath 1085.141 302.3357 moveto
1092.076 295.4007 1100.4354 287.0412 1107.3601 280.1166 curveto
stroke
grestore
% 134--133
gsave
.25 setlinewidth
0 0 0 edgecolor
newpath 1035.141 352.3357 moveto
1042.076 345.4007 1050.4354 337.0412 1057.3601 330.1166 curveto
stroke
grestore
% 135--134
gsave
.25 setlinewidth
0 0 0 edgecolor
newpath 985.141 402.3357 moveto
992.076 395.4007 1000.4354 387.0412 1007.3601 380.1166 curveto
stroke
grestore
% 136--135
gsave
.25 setlinewidth
0 0 0 edgecolor
newpath 935.141 452.3357 moveto
942.076 445.4007 950.4354 437.0412 957.3601 430.1166 curveto
stroke
grestore
% 137--136
gsave
.25 setlinewidth
0 0 0 edgecolor
newpath 885.141 502.3357 moveto
892.076 495.4007 900.4354 487.0412 907.3601 480.1166 curveto
stroke
grestore
% 156
gsave
1 setlinewidth
0 0 0 nodecolor
821.2132 466.2635 26.3269 16.0303 ellipse_path stroke
0 0 0 nodecolor
14 /Times-Roman set_font
810.7132 462.5635 moveto 21 (156) alignedtext
grestore
% 137--156
gsave
.25 setlinewidth
0 0 0 edgecolor
newpath 857.2854 502.3357 moveto
850.3504 495.4007 841.991 487.0412 835.0663 480.1166 curveto
stroke
grestore
% 139--138
gsave
.25 setlinewidth
0 0 0 edgecolor
newpath 785.141 530.1912 moveto
792.076 537.1262 800.4354 545.4857 807.3601 552.4104 curveto
stroke
grestore
% 140--139
gsave
.25 setlinewidth
0 0 0 edgecolor
newpath 735.141 480.1912 moveto
742.076 487.1262 750.4354 495.4857 757.3601 502.4104 curveto
stroke
grestore
% 141--140
gsave
.25 setlinewidth
0 0 0 edgecolor
newpath 685.141 430.1912 moveto
692.076 437.1262 700.4354 445.4857 707.3601 452.4104 curveto
stroke
grestore
% 142--141
gsave
.25 setlinewidth
0 0 0 edgecolor
newpath 635.141 380.1912 moveto
642.076 387.1262 650.4354 395.4857 657.3601 402.4104 curveto
stroke
grestore
% 143--142
gsave
.25 setlinewidth
0 0 0 edgecolor
newpath 585.141 330.1912 moveto
592.076 337.1262 600.4354 345.4857 607.3601 352.4104 curveto
stroke
grestore
% 144--143
gsave
.25 setlinewidth
0 0 0 edgecolor
newpath 535.141 280.1912 moveto
542.076 287.1262 550.4354 295.4857 557.3601 302.4104 curveto
stroke
grestore
% 145--144
gsave
.25 setlinewidth
0 0 0 edgecolor
newpath 485.141 230.1912 moveto
492.076 237.1262 500.4354 245.4857 507.3601 252.4104 curveto
stroke
grestore
% 161
gsave
1 setlinewidth
0 0 0 nodecolor
571.2132 216.2635 26.3269 16.0303 ellipse_path stroke
0 0 0 nodecolor
14 /Times-Roman set_font
560.7132 212.5635 moveto 21 (161) alignedtext
grestore
% 145--161
gsave
.25 setlinewidth
0 0 0 edgecolor
newpath 497.487 216.2635 moveto
512.0697 216.2635 530.1576 216.2635 544.7677 216.2635 curveto
stroke
grestore
% 146
gsave
1 setlinewidth
0 0 0 nodecolor
421.2132 166.2635 26.3269 16.0303 ellipse_path stroke
0 0 0 nodecolor
14 /Times-Roman set_font
410.7132 162.5635 moveto 21 (146) alignedtext
grestore
% 146--90
gsave
.25 setlinewidth
0 0 0 edgecolor
newpath 407.2854 152.3357 moveto
400.1193 145.1695 391.4321 136.4824 384.3787 129.429 curveto
stroke
grestore
% 146--120
gsave
.25 setlinewidth
0 0 0 edgecolor
newpath 407.2854 180.1912 moveto
400.3504 187.1262 391.991 195.4857 385.0663 202.4104 curveto
stroke
grestore
% 146--123
gsave
.25 setlinewidth
0 0 0 edgecolor
newpath 447.487 166.2635 moveto
462.0697 166.2635 480.1576 166.2635 494.7677 166.2635 curveto
stroke
grestore
% 147
gsave
1 setlinewidth
0 0 0 nodecolor
671.2132 216.2635 26.3269 16.0303 ellipse_path stroke
0 0 0 nodecolor
14 /Times-Roman set_font
660.7132 212.5635 moveto 21 (147) alignedtext
grestore
% 147--161
gsave
.25 setlinewidth
0 0 0 edgecolor
newpath 644.9394 216.2635 moveto
630.3567 216.2635 612.2688 216.2635 597.6587 216.2635 curveto
stroke
grestore
% 148
gsave
1 setlinewidth
0 0 0 nodecolor
771.2132 216.2635 26.3269 16.0303 ellipse_path stroke
0 0 0 nodecolor
14 /Times-Roman set_font
760.7132 212.5635 moveto 21 (148) alignedtext
grestore
% 148--147
gsave
.25 setlinewidth
0 0 0 edgecolor
newpath 744.9394 216.2635 moveto
730.3567 216.2635 712.2688 216.2635 697.6587 216.2635 curveto
stroke
grestore
% 149
gsave
1 setlinewidth
0 0 0 nodecolor
871.2132 216.2635 26.3269 16.0303 ellipse_path stroke
0 0 0 nodecolor
14 /Times-Roman set_font
860.7132 212.5635 moveto 21 (149) alignedtext
grestore
% 149--148
gsave
.25 setlinewidth
0 0 0 edgecolor
newpath 844.9394 216.2635 moveto
830.3567 216.2635 812.2688 216.2635 797.6587 216.2635 curveto
stroke
grestore
% 150
gsave
1 setlinewidth
0 0 0 nodecolor
971.2132 216.2635 26.3269 16.0303 ellipse_path stroke
0 0 0 nodecolor
14 /Times-Roman set_font
960.7132 212.5635 moveto 21 (150) alignedtext
grestore
% 150--149
gsave
.25 setlinewidth
0 0 0 edgecolor
newpath 944.9394 216.2635 moveto
930.3567 216.2635 912.2688 216.2635 897.6587 216.2635 curveto
stroke
grestore
% 150--151
gsave
.25 setlinewidth
0 0 0 edgecolor
newpath 997.487 216.2635 moveto
1012.0697 216.2635 1030.1576 216.2635 1044.7677 216.2635 curveto
stroke
grestore
% 152
gsave
1 setlinewidth
0 0 0 nodecolor
1021.2132 266.2635 26.3269 16.0303 ellipse_path stroke
0 0 0 nodecolor
14 /Times-Roman set_font
1010.7132 262.5635 moveto 21 (152) alignedtext
grestore
% 152--151
gsave
.25 setlinewidth
0 0 0 edgecolor
newpath 1035.141 252.3357 moveto
1042.076 245.4007 1050.4354 237.0412 1057.3601 230.1166 curveto
stroke
grestore
% 153
gsave
1 setlinewidth
0 0 0 nodecolor
971.2132 316.2635 26.3269 16.0303 ellipse_path stroke
0 0 0 nodecolor
14 /Times-Roman set_font
960.7132 312.5635 moveto 21 (153) alignedtext
grestore
% 153--152
gsave
.25 setlinewidth
0 0 0 edgecolor
newpath 985.141 302.3357 moveto
992.076 295.4007 1000.4354 287.0412 1007.3601 280.1166 curveto
stroke
grestore
% 154
gsave
1 setlinewidth
0 0 0 nodecolor
921.2132 366.2635 26.3269 16.0303 ellipse_path stroke
0 0 0 nodecolor
14 /Times-Roman set_font
910.7132 362.5635 moveto 21 (154) alignedtext
grestore
% 154--153
gsave
.25 setlinewidth
0 0 0 edgecolor
newpath 935.141 352.3357 moveto
942.076 345.4007 950.4354 337.0412 957.3601 330.1166 curveto
stroke
grestore
% 155
gsave
1 setlinewidth
0 0 0 nodecolor
871.2132 416.2635 26.3269 16.0303 ellipse_path stroke
0 0 0 nodecolor
14 /Times-Roman set_font
860.7132 412.5635 moveto 21 (155) alignedtext
grestore
% 155--154
gsave
.25 setlinewidth
0 0 0 edgecolor
newpath 885.141 402.3357 moveto
892.076 395.4007 900.4354 387.0412 907.3601 380.1166 curveto
stroke
grestore
% 155--156
gsave
.25 setlinewidth
0 0 0 edgecolor
newpath 857.2854 430.1912 moveto
850.3504 437.1262 841.991 445.4857 835.0663 452.4104 curveto
stroke
grestore
% 157
gsave
1 setlinewidth
0 0 0 nodecolor
771.2132 416.2635 26.3269 16.0303 ellipse_path stroke
0 0 0 nodecolor
14 /Times-Roman set_font
760.7132 412.5635 moveto 21 (157) alignedtext
grestore
% 157--156
gsave
.25 setlinewidth
0 0 0 edgecolor
newpath 785.141 430.1912 moveto
792.076 437.1262 800.4354 445.4857 807.3601 452.4104 curveto
stroke
grestore
% 158
gsave
1 setlinewidth
0 0 0 nodecolor
721.2132 366.2635 26.3269 16.0303 ellipse_path stroke
0 0 0 nodecolor
14 /Times-Roman set_font
710.7132 362.5635 moveto 21 (158) alignedtext
grestore
% 158--157
gsave
.25 setlinewidth
0 0 0 edgecolor
newpath 735.141 380.1912 moveto
742.076 387.1262 750.4354 395.4857 757.3601 402.4104 curveto
stroke
grestore
% 159
gsave
1 setlinewidth
0 0 0 nodecolor
671.2132 316.2635 26.3269 16.0303 ellipse_path stroke
0 0 0 nodecolor
14 /Times-Roman set_font
660.7132 312.5635 moveto 21 (159) alignedtext
grestore
% 159--158
gsave
.25 setlinewidth
0 0 0 edgecolor
newpath 685.141 330.1912 moveto
692.076 337.1262 700.4354 345.4857 707.3601 352.4104 curveto
stroke
grestore
% 160
gsave
1 setlinewidth
0 0 0 nodecolor
621.2132 266.2635 26.3269 16.0303 ellipse_path stroke
0 0 0 nodecolor
14 /Times-Roman set_font
610.7132 262.5635 moveto 21 (160) alignedtext
grestore
% 160--159
gsave
.25 setlinewidth
0 0 0 edgecolor
newpath 635.141 280.1912 moveto
642.076 287.1262 650.4354 295.4857 657.3601 302.4104 curveto
stroke
grestore
% 160--161
gsave
.25 setlinewidth
0 0 0 edgecolor
newpath 607.2854 252.3357 moveto
600.3504 245.4007 591.991 237.0412 585.0663 230.1166 curveto
stroke
grestore
% 162
gsave
1 setlinewidth
0 0 0 nodecolor
821.2132 266.2635 26.3269 16.0303 ellipse_path stroke
0 0 0 nodecolor
14 /Times-Roman set_font
810.7132 262.5635 moveto 21 (162) alignedtext
grestore
% 162--148
gsave
.25 setlinewidth
0 0 0 edgecolor
newpath 807.2854 252.3357 moveto
800.3504 245.4007 791.991 237.0412 785.0663 230.1166 curveto
stroke
grestore
% 162--149
gsave
.25 setlinewidth
0 0 0 edgecolor
newpath 835.141 252.3357 moveto
842.076 245.4007 850.4354 237.0412 857.3601 230.1166 curveto
stroke
grestore
% 167
gsave
1 setlinewidth
0 0 0 nodecolor
721.2132 266.2635 26.3269 16.0303 ellipse_path stroke
0 0 0 nodecolor
14 /Times-Roman set_font
710.7132 262.5635 moveto 21 (167) alignedtext
grestore
% 162--167
gsave
.25 setlinewidth
0 0 0 edgecolor
newpath 794.9394 266.2635 moveto
780.3567 266.2635 762.2688 266.2635 747.6587 266.2635 curveto
stroke
grestore
% 163
gsave
1 setlinewidth
0 0 0 nodecolor
921.2132 266.2635 26.3269 16.0303 ellipse_path stroke
0 0 0 nodecolor
14 /Times-Roman set_font
910.7132 262.5635 moveto 21 (163) alignedtext
grestore
% 163--150
gsave
.25 setlinewidth
0 0 0 edgecolor
newpath 935.141 252.3357 moveto
942.076 245.4007 950.4354 237.0412 957.3601 230.1166 curveto
stroke
grestore
% 163--152
gsave
.25 setlinewidth
0 0 0 edgecolor
newpath 947.487 266.2635 moveto
962.0697 266.2635 980.1576 266.2635 994.7677 266.2635 curveto
stroke
grestore
% 164
gsave
1 setlinewidth
0 0 0 nodecolor
871.2132 316.2635 26.3269 16.0303 ellipse_path stroke
0 0 0 nodecolor
14 /Times-Roman set_font
860.7132 312.5635 moveto 21 (164) alignedtext
grestore
% 164--153
gsave
.25 setlinewidth
0 0 0 edgecolor
newpath 897.487 316.2635 moveto
912.0697 316.2635 930.1576 316.2635 944.7677 316.2635 curveto
stroke
grestore
% 164--154
gsave
.25 setlinewidth
0 0 0 edgecolor
newpath 885.141 330.1912 moveto
892.076 337.1262 900.4354 345.4857 907.3601 352.4104 curveto
stroke
grestore
% 164--163
gsave
.25 setlinewidth
0 0 0 edgecolor
newpath 885.141 302.3357 moveto
892.076 295.4007 900.4354 287.0412 907.3601 280.1166 curveto
stroke
grestore
% 165
gsave
1 setlinewidth
0 0 0 nodecolor
821.2132 366.2635 26.3269 16.0303 ellipse_path stroke
0 0 0 nodecolor
14 /Times-Roman set_font
810.7132 362.5635 moveto 21 (165) alignedtext
grestore
% 165--155
gsave
.25 setlinewidth
0 0 0 edgecolor
newpath 835.141 380.1912 moveto
842.076 387.1262 850.4354 395.4857 857.3601 402.4104 curveto
stroke
grestore
% 165--157
gsave
.25 setlinewidth
0 0 0 edgecolor
newpath 807.2854 380.1912 moveto
800.3504 387.1262 791.991 395.4857 785.0663 402.4104 curveto
stroke
grestore
% 166
gsave
1 setlinewidth
0 0 0 nodecolor
771.2132 316.2635 26.3269 16.0303 ellipse_path stroke
0 0 0 nodecolor
14 /Times-Roman set_font
760.7132 312.5635 moveto 21 (166) alignedtext
grestore
% 166--158
gsave
.25 setlinewidth
0 0 0 edgecolor
newpath 757.2854 330.1912 moveto
750.3504 337.1262 741.991 345.4857 735.0663 352.4104 curveto
stroke
grestore
% 166--159
gsave
.25 setlinewidth
0 0 0 edgecolor
newpath 744.9394 316.2635 moveto
730.3567 316.2635 712.2688 316.2635 697.6587 316.2635 curveto
stroke
grestore
% 166--165
gsave
.25 setlinewidth
0 0 0 edgecolor
newpath 785.141 330.1912 moveto
792.076 337.1262 800.4354 345.4857 807.3601 352.4104 curveto
stroke
grestore
% 167--147
gsave
.25 setlinewidth
0 0 0 edgecolor
newpath 707.2854 252.3357 moveto
700.3504 245.4007 691.991 237.0412 685.0663 230.1166 curveto
stroke
grestore
% 167--160
gsave
.25 setlinewidth
0 0 0 edgecolor
newpath 694.9394 266.2635 moveto
680.3567 266.2635 662.2688 266.2635 647.6587 266.2635 curveto
stroke
grestore
endpage
showpage
grestore
%%PageTrailer
%%EndPage: 1
%%Trailer
%%Pages: 1
%%BoundingBox: 36 36 1686 877
end
restore
%%EOF
