%!PS-Adobe-3.0
%%Creator: graphviz version 2.40.1 (20161225.0304)
%%Title: G
%%Pages: (atend)
%%BoundingBox: (atend)
%%EndComments
save
%%BeginProlog
/DotDict 200 dict def
DotDict begin

/setupLatin1 {
mark
/EncodingVector 256 array def
 EncodingVector 0

ISOLatin1Encoding 0 255 getinterval putinterval
EncodingVector 45 /hyphen put

% Set up ISO Latin 1 character encoding
/starnetISO {
        dup dup findfont dup length dict begin
        { 1 index /FID ne { def }{ pop pop } ifelse
        } forall
        /Encoding EncodingVector def
        currentdict end definefont
} def
/Times-Roman starnetISO def
/Times-Italic starnetISO def
/Times-Bold starnetISO def
/Times-BoldItalic starnetISO def
/Helvetica starnetISO def
/Helvetica-Oblique starnetISO def
/Helvetica-Bold starnetISO def
/Helvetica-BoldOblique starnetISO def
/Courier starnetISO def
/Courier-Oblique starnetISO def
/Courier-Bold starnetISO def
/Courier-BoldOblique starnetISO def
cleartomark
} bind def

%%BeginResource: procset graphviz 0 0
/coord-font-family /Times-Roman def
/default-font-family /Times-Roman def
/coordfont coord-font-family findfont 8 scalefont def

/InvScaleFactor 1.0 def
/set_scale {
       dup 1 exch div /InvScaleFactor exch def
       scale
} bind def

% styles
/solid { [] 0 setdash } bind def
/dashed { [9 InvScaleFactor mul dup ] 0 setdash } bind def
/dotted { [1 InvScaleFactor mul 6 InvScaleFactor mul] 0 setdash } bind def
/invis {/fill {newpath} def /stroke {newpath} def /show {pop newpath} def} bind def
/bold { 2 setlinewidth } bind def
/filled { } bind def
/unfilled { } bind def
/rounded { } bind def
/diagonals { } bind def
/tapered { } bind def

% hooks for setting color 
/nodecolor { sethsbcolor } bind def
/edgecolor { sethsbcolor } bind def
/graphcolor { sethsbcolor } bind def
/nopcolor {pop pop pop} bind def

/beginpage {	% i j npages
	/npages exch def
	/j exch def
	/i exch def
	/str 10 string def
	npages 1 gt {
		gsave
			coordfont setfont
			0 0 moveto
			(\() show i str cvs show (,) show j str cvs show (\)) show
		grestore
	} if
} bind def

/set_font {
	findfont exch
	scalefont setfont
} def

% draw text fitted to its expected width
/alignedtext {			% width text
	/text exch def
	/width exch def
	gsave
		width 0 gt {
			[] 0 setdash
			text stringwidth pop width exch sub text length div 0 text ashow
		} if
	grestore
} def

/boxprim {				% xcorner ycorner xsize ysize
		4 2 roll
		moveto
		2 copy
		exch 0 rlineto
		0 exch rlineto
		pop neg 0 rlineto
		closepath
} bind def

/ellipse_path {
	/ry exch def
	/rx exch def
	/y exch def
	/x exch def
	matrix currentmatrix
	newpath
	x y translate
	rx ry scale
	0 0 1 0 360 arc
	setmatrix
} bind def

/endpage { showpage } bind def
/showpage { } def

/layercolorseq
	[	% layer color sequence - darkest to lightest
		[0 0 0]
		[.2 .8 .8]
		[.4 .8 .8]
		[.6 .8 .8]
		[.8 .8 .8]
	]
def

/layerlen layercolorseq length def

/setlayer {/maxlayer exch def /curlayer exch def
	layercolorseq curlayer 1 sub layerlen mod get
	aload pop sethsbcolor
	/nodecolor {nopcolor} def
	/edgecolor {nopcolor} def
	/graphcolor {nopcolor} def
} bind def

/onlayer { curlayer ne {invis} if } def

/onlayers {
	/myupper exch def
	/mylower exch def
	curlayer mylower lt
	curlayer myupper gt
	or
	{invis} if
} def

/curlayer 0 def

%%EndResource
%%EndProlog
%%BeginSetup
14 default-font-family set_font
% /arrowlength 10 def
% /arrowwidth 5 def

% make sure pdfmark is harmless for PS-interpreters other than Distiller
/pdfmark where {pop} {userdict /pdfmark /cleartomark load put} ifelse
% make '<<' and '>>' safe on PS Level 1 devices
/languagelevel where {pop languagelevel}{1} ifelse
2 lt {
    userdict (<<) cvn ([) cvn load put
    userdict (>>) cvn ([) cvn load put
} if

%%EndSetup
setupLatin1
%%Page: 1 1
%%PageBoundingBox: 36 36 377 227
%%PageOrientation: Portrait
0 0 1 beginpage
gsave
36 36 341 191 boxprim clip newpath
1 1 set_scale 0 rotate 40 40 translate
% 0
gsave
1 setlinewidth
0 0 0 nodecolor
66.2635 16.2635 16.0303 16.0303 ellipse_path stroke
0 0 0 nodecolor
14 /Times-Roman set_font
62.7635 12.5635 moveto 7 (0) alignedtext
grestore
% 8
gsave
1 setlinewidth
0 0 0 nodecolor
16.2635 66.2635 16.0303 16.0303 ellipse_path stroke
0 0 0 nodecolor
14 /Times-Roman set_font
12.7635 62.5635 moveto 7 (8) alignedtext
grestore
% 0--8
gsave
.25 setlinewidth
0 0 0 edgecolor
newpath 54.6668 27.8601 moveto
46.5892 35.9378 35.8611 46.6658 27.7972 54.7297 curveto
stroke
grestore
% 1
gsave
1 setlinewidth
0 0 0 nodecolor
166.2635 16.2635 16.0303 16.0303 ellipse_path stroke
0 0 0 nodecolor
14 /Times-Roman set_font
162.7635 12.5635 moveto 7 (1) alignedtext
grestore
% 1--0
gsave
.25 setlinewidth
0 0 0 edgecolor
newpath 149.7505 16.2635 moveto
131.2221 16.2635 101.3394 16.2635 82.801 16.2635 curveto
stroke
grestore
% 2
gsave
1 setlinewidth
0 0 0 nodecolor
266.2635 16.2635 16.0303 16.0303 ellipse_path stroke
0 0 0 nodecolor
14 /Times-Roman set_font
262.7635 12.5635 moveto 7 (2) alignedtext
grestore
% 2--1
gsave
.25 setlinewidth
0 0 0 edgecolor
newpath 249.7505 16.2635 moveto
231.2221 16.2635 201.3394 16.2635 182.801 16.2635 curveto
stroke
grestore
% 3
gsave
1 setlinewidth
0 0 0 nodecolor
316.2635 66.2635 16.0303 16.0303 ellipse_path stroke
0 0 0 nodecolor
14 /Times-Roman set_font
312.7635 62.5635 moveto 7 (3) alignedtext
grestore
% 3--2
gsave
.25 setlinewidth
0 0 0 edgecolor
newpath 304.6668 54.6668 moveto
296.5892 46.5892 285.8611 35.8611 277.7972 27.7972 curveto
stroke
grestore
% 4
gsave
1 setlinewidth
0 0 0 nodecolor
266.2635 116.2635 16.0303 16.0303 ellipse_path stroke
0 0 0 nodecolor
14 /Times-Roman set_font
262.7635 112.5635 moveto 7 (4) alignedtext
grestore
% 4--3
gsave
.25 setlinewidth
0 0 0 edgecolor
newpath 277.8601 104.6668 moveto
285.9378 96.5892 296.6658 85.8611 304.7297 77.7972 curveto
stroke
grestore
% 5
gsave
1 setlinewidth
0 0 0 nodecolor
216.2635 166.2635 16.0303 16.0303 ellipse_path stroke
0 0 0 nodecolor
14 /Times-Roman set_font
212.7635 162.5635 moveto 7 (5) alignedtext
grestore
% 5--4
gsave
.25 setlinewidth
0 0 0 edgecolor
newpath 227.8601 154.6668 moveto
235.9378 146.5892 246.6658 135.8611 254.7297 127.7972 curveto
stroke
grestore
% 6
gsave
1 setlinewidth
0 0 0 nodecolor
116.2635 166.2635 16.0303 16.0303 ellipse_path stroke
0 0 0 nodecolor
14 /Times-Roman set_font
112.7635 162.5635 moveto 7 (6) alignedtext
grestore
% 6--5
gsave
.25 setlinewidth
0 0 0 edgecolor
newpath 132.7764 166.2635 moveto
151.3048 166.2635 181.1876 166.2635 199.726 166.2635 curveto
stroke
grestore
% 7
gsave
1 setlinewidth
0 0 0 nodecolor
66.2635 116.2635 16.0303 16.0303 ellipse_path stroke
0 0 0 nodecolor
14 /Times-Roman set_font
62.7635 112.5635 moveto 7 (7) alignedtext
grestore
% 7--6
gsave
.25 setlinewidth
0 0 0 edgecolor
newpath 77.8601 127.8601 moveto
85.9378 135.9378 96.6658 146.6658 104.7297 154.7297 curveto
stroke
grestore
% 8--7
gsave
.25 setlinewidth
0 0 0 edgecolor
newpath 27.8601 77.8601 moveto
35.9378 85.9378 46.6658 96.6658 54.7297 104.7297 curveto
stroke
grestore
% 9
gsave
1 setlinewidth
0 0 0 nodecolor
216.2635 66.2635 16.0303 16.0303 ellipse_path stroke
0 0 0 nodecolor
14 /Times-Roman set_font
212.7635 62.5635 moveto 7 (9) alignedtext
grestore
% 9--2
gsave
.25 setlinewidth
0 0 0 edgecolor
newpath 227.8601 54.6668 moveto
235.9378 46.5892 246.6658 35.8611 254.7297 27.7972 curveto
stroke
grestore
% 9--3
gsave
.25 setlinewidth
0 0 0 edgecolor
newpath 232.7764 66.2635 moveto
251.3048 66.2635 281.1876 66.2635 299.726 66.2635 curveto
stroke
grestore
% 9--4
gsave
.25 setlinewidth
0 0 0 edgecolor
newpath 227.8601 77.8601 moveto
235.9378 85.9378 246.6658 96.6658 254.7297 104.7297 curveto
stroke
grestore
% 10
gsave
1 setlinewidth
0 0 0 nodecolor
166.2635 116.2635 21.4286 16.0303 ellipse_path stroke
0 0 0 nodecolor
14 /Times-Roman set_font
159.2635 112.5635 moveto 14 (10) alignedtext
grestore
% 10--5
gsave
.25 setlinewidth
0 0 0 edgecolor
newpath 179.4004 129.4004 moveto
187.2704 137.2704 197.1822 147.1822 204.7454 154.7454 curveto
stroke
grestore
% 10--6
gsave
.25 setlinewidth
0 0 0 edgecolor
newpath 153.1265 129.4004 moveto
145.2565 137.2704 135.3447 147.1822 127.7815 154.7454 curveto
stroke
grestore
% 10--7
gsave
.25 setlinewidth
0 0 0 edgecolor
newpath 144.5649 116.2635 moveto
125.9534 116.2635 99.5411 116.2635 82.654 116.2635 curveto
stroke
grestore
% 11
gsave
1 setlinewidth
0 0 0 nodecolor
116.2635 66.2635 21.4286 16.0303 ellipse_path stroke
0 0 0 nodecolor
14 /Times-Roman set_font
109.2635 62.5635 moveto 14 (11) alignedtext
grestore
% 11--0
gsave
.25 setlinewidth
0 0 0 edgecolor
newpath 103.1265 53.1265 moveto
95.2565 45.2565 85.3447 35.3447 77.7815 27.7815 curveto
stroke
grestore
% 11--1
gsave
.25 setlinewidth
0 0 0 edgecolor
newpath 129.4004 53.1265 moveto
137.2704 45.2565 147.1822 35.3447 154.7454 27.7815 curveto
stroke
grestore
% 11--8
gsave
.25 setlinewidth
0 0 0 edgecolor
newpath 94.5649 66.2635 moveto
75.9534 66.2635 49.5411 66.2635 32.654 66.2635 curveto
stroke
grestore
endpage
showpage
grestore
%%PageTrailer
%%EndPage: 1
%%Trailer
%%Pages: 1
%%BoundingBox: 36 36 377 227
end
restore
%%EOF
