%!PS-Adobe-3.0
%%Creator: graphviz version 2.40.1 (20161225.0304)
%%Title: G
%%Pages: (atend)
%%BoundingBox: (atend)
%%EndComments
save
%%BeginProlog
/DotDict 200 dict def
DotDict begin

/setupLatin1 {
mark
/EncodingVector 256 array def
 EncodingVector 0

ISOLatin1Encoding 0 255 getinterval putinterval
EncodingVector 45 /hyphen put

% Set up ISO Latin 1 character encoding
/starnetISO {
        dup dup findfont dup length dict begin
        { 1 index /FID ne { def }{ pop pop } ifelse
        } forall
        /Encoding EncodingVector def
        currentdict end definefont
} def
/Times-Roman starnetISO def
/Times-Italic starnetISO def
/Times-Bold starnetISO def
/Times-BoldItalic starnetISO def
/Helvetica starnetISO def
/Helvetica-Oblique starnetISO def
/Helvetica-Bold starnetISO def
/Helvetica-BoldOblique starnetISO def
/Courier starnetISO def
/Courier-Oblique starnetISO def
/Courier-Bold starnetISO def
/Courier-BoldOblique starnetISO def
cleartomark
} bind def

%%BeginResource: procset graphviz 0 0
/coord-font-family /Times-Roman def
/default-font-family /Times-Roman def
/coordfont coord-font-family findfont 8 scalefont def

/InvScaleFactor 1.0 def
/set_scale {
       dup 1 exch div /InvScaleFactor exch def
       scale
} bind def

% styles
/solid { [] 0 setdash } bind def
/dashed { [9 InvScaleFactor mul dup ] 0 setdash } bind def
/dotted { [1 InvScaleFactor mul 6 InvScaleFactor mul] 0 setdash } bind def
/invis {/fill {newpath} def /stroke {newpath} def /show {pop newpath} def} bind def
/bold { 2 setlinewidth } bind def
/filled { } bind def
/unfilled { } bind def
/rounded { } bind def
/diagonals { } bind def
/tapered { } bind def

% hooks for setting color 
/nodecolor { sethsbcolor } bind def
/edgecolor { sethsbcolor } bind def
/graphcolor { sethsbcolor } bind def
/nopcolor {pop pop pop} bind def

/beginpage {	% i j npages
	/npages exch def
	/j exch def
	/i exch def
	/str 10 string def
	npages 1 gt {
		gsave
			coordfont setfont
			0 0 moveto
			(\() show i str cvs show (,) show j str cvs show (\)) show
		grestore
	} if
} bind def

/set_font {
	findfont exch
	scalefont setfont
} def

% draw text fitted to its expected width
/alignedtext {			% width text
	/text exch def
	/width exch def
	gsave
		width 0 gt {
			[] 0 setdash
			text stringwidth pop width exch sub text length div 0 text ashow
		} if
	grestore
} def

/boxprim {				% xcorner ycorner xsize ysize
		4 2 roll
		moveto
		2 copy
		exch 0 rlineto
		0 exch rlineto
		pop neg 0 rlineto
		closepath
} bind def

/ellipse_path {
	/ry exch def
	/rx exch def
	/y exch def
	/x exch def
	matrix currentmatrix
	newpath
	x y translate
	rx ry scale
	0 0 1 0 360 arc
	setmatrix
} bind def

/endpage { showpage } bind def
/showpage { } def

/layercolorseq
	[	% layer color sequence - darkest to lightest
		[0 0 0]
		[.2 .8 .8]
		[.4 .8 .8]
		[.6 .8 .8]
		[.8 .8 .8]
	]
def

/layerlen layercolorseq length def

/setlayer {/maxlayer exch def /curlayer exch def
	layercolorseq curlayer 1 sub layerlen mod get
	aload pop sethsbcolor
	/nodecolor {nopcolor} def
	/edgecolor {nopcolor} def
	/graphcolor {nopcolor} def
} bind def

/onlayer { curlayer ne {invis} if } def

/onlayers {
	/myupper exch def
	/mylower exch def
	curlayer mylower lt
	curlayer myupper gt
	or
	{invis} if
} def

/curlayer 0 def

%%EndResource
%%EndProlog
%%BeginSetup
14 default-font-family set_font
% /arrowlength 10 def
% /arrowwidth 5 def

% make sure pdfmark is harmless for PS-interpreters other than Distiller
/pdfmark where {pop} {userdict /pdfmark /cleartomark load put} ifelse
% make '<<' and '>>' safe on PS Level 1 devices
/languagelevel where {pop languagelevel}{1} ifelse
2 lt {
    userdict (<<) cvn ([) cvn load put
    userdict (>>) cvn ([) cvn load put
} if

%%EndSetup
setupLatin1
%%Page: 1 1
%%PageBoundingBox: 36 36 481 277
%%PageOrientation: Portrait
0 0 1 beginpage
gsave
36 36 445 241 boxprim clip newpath
1 1 set_scale 0 rotate 40 40 translate
% 0
gsave
1 setlinewidth
0 0 0 nodecolor
71.2132 16.2635 16.0303 16.0303 ellipse_path stroke
0 0 0 nodecolor
14 /Times-Roman set_font
67.7132 12.5635 moveto 7 (0) alignedtext
grestore
% 11
gsave
1 setlinewidth
0 0 0 nodecolor
21.2132 66.2635 21.4286 16.0303 ellipse_path stroke
0 0 0 nodecolor
14 /Times-Roman set_font
14.2132 62.5635 moveto 14 (11) alignedtext
grestore
% 0--11
gsave
.25 setlinewidth
0 0 0 edgecolor
newpath 59.6165 27.8601 moveto
52.0005 35.4762 42.0282 45.4484 34.1545 53.3222 curveto
stroke
grestore
% 1
gsave
1 setlinewidth
0 0 0 nodecolor
171.2132 16.2635 16.0303 16.0303 ellipse_path stroke
0 0 0 nodecolor
14 /Times-Roman set_font
167.7132 12.5635 moveto 7 (1) alignedtext
grestore
% 1--0
gsave
.25 setlinewidth
0 0 0 edgecolor
newpath 154.7002 16.2635 moveto
136.1718 16.2635 106.2891 16.2635 87.7507 16.2635 curveto
stroke
grestore
% 2
gsave
1 setlinewidth
0 0 0 nodecolor
271.2132 16.2635 16.0303 16.0303 ellipse_path stroke
0 0 0 nodecolor
14 /Times-Roman set_font
267.7132 12.5635 moveto 7 (2) alignedtext
grestore
% 2--1
gsave
.25 setlinewidth
0 0 0 edgecolor
newpath 254.7002 16.2635 moveto
236.1718 16.2635 206.2891 16.2635 187.7507 16.2635 curveto
stroke
grestore
% 3
gsave
1 setlinewidth
0 0 0 nodecolor
371.2132 16.2635 16.0303 16.0303 ellipse_path stroke
0 0 0 nodecolor
14 /Times-Roman set_font
367.7132 12.5635 moveto 7 (3) alignedtext
grestore
% 3--2
gsave
.25 setlinewidth
0 0 0 edgecolor
newpath 354.7002 16.2635 moveto
336.1718 16.2635 306.2891 16.2635 287.7507 16.2635 curveto
stroke
grestore
% 4
gsave
1 setlinewidth
0 0 0 nodecolor
421.2132 66.2635 16.0303 16.0303 ellipse_path stroke
0 0 0 nodecolor
14 /Times-Roman set_font
417.7132 62.5635 moveto 7 (4) alignedtext
grestore
% 4--3
gsave
.25 setlinewidth
0 0 0 edgecolor
newpath 409.6165 54.6668 moveto
401.5389 46.5892 390.8108 35.8611 382.747 27.7972 curveto
stroke
grestore
% 5
gsave
1 setlinewidth
0 0 0 nodecolor
371.2132 116.2635 16.0303 16.0303 ellipse_path stroke
0 0 0 nodecolor
14 /Times-Roman set_font
367.7132 112.5635 moveto 7 (5) alignedtext
grestore
% 5--4
gsave
.25 setlinewidth
0 0 0 edgecolor
newpath 382.8099 104.6668 moveto
390.8875 96.5892 401.6156 85.8611 409.6794 77.7972 curveto
stroke
grestore
% 6
gsave
1 setlinewidth
0 0 0 nodecolor
321.2132 166.2635 16.0303 16.0303 ellipse_path stroke
0 0 0 nodecolor
14 /Times-Roman set_font
317.7132 162.5635 moveto 7 (6) alignedtext
grestore
% 6--5
gsave
.25 setlinewidth
0 0 0 edgecolor
newpath 332.8099 154.6668 moveto
340.8875 146.5892 351.6156 135.8611 359.6794 127.7972 curveto
stroke
grestore
% 7
gsave
1 setlinewidth
0 0 0 nodecolor
271.2132 216.2635 16.0303 16.0303 ellipse_path stroke
0 0 0 nodecolor
14 /Times-Roman set_font
267.7132 212.5635 moveto 7 (7) alignedtext
grestore
% 7--6
gsave
.25 setlinewidth
0 0 0 edgecolor
newpath 282.8099 204.6668 moveto
290.8875 196.5892 301.6156 185.8611 309.6794 177.7972 curveto
stroke
grestore
% 8
gsave
1 setlinewidth
0 0 0 nodecolor
171.2132 216.2635 16.0303 16.0303 ellipse_path stroke
0 0 0 nodecolor
14 /Times-Roman set_font
167.7132 212.5635 moveto 7 (8) alignedtext
grestore
% 8--7
gsave
.25 setlinewidth
0 0 0 edgecolor
newpath 187.7262 216.2635 moveto
206.2546 216.2635 236.1373 216.2635 254.6757 216.2635 curveto
stroke
grestore
% 9
gsave
1 setlinewidth
0 0 0 nodecolor
121.2132 166.2635 16.0303 16.0303 ellipse_path stroke
0 0 0 nodecolor
14 /Times-Roman set_font
117.7132 162.5635 moveto 7 (9) alignedtext
grestore
% 9--8
gsave
.25 setlinewidth
0 0 0 edgecolor
newpath 132.8099 177.8601 moveto
140.8875 185.9378 151.6156 196.6658 159.6794 204.7297 curveto
stroke
grestore
% 10
gsave
1 setlinewidth
0 0 0 nodecolor
71.2132 116.2635 21.4286 16.0303 ellipse_path stroke
0 0 0 nodecolor
14 /Times-Roman set_font
64.2132 112.5635 moveto 14 (10) alignedtext
grestore
% 10--9
gsave
.25 setlinewidth
0 0 0 edgecolor
newpath 84.3501 129.4004 moveto
92.2201 137.2704 102.132 147.1822 109.6951 154.7454 curveto
stroke
grestore
% 11--10
gsave
.25 setlinewidth
0 0 0 edgecolor
newpath 34.3501 79.4004 moveto
41.6414 86.6917 50.6854 95.7357 57.9904 103.0407 curveto
stroke
grestore
% 12
gsave
1 setlinewidth
0 0 0 nodecolor
221.2132 66.2635 21.4286 16.0303 ellipse_path stroke
0 0 0 nodecolor
14 /Times-Roman set_font
214.2132 62.5635 moveto 14 (12) alignedtext
grestore
% 12--1
gsave
.25 setlinewidth
0 0 0 edgecolor
newpath 208.0763 53.1265 moveto
200.2063 45.2565 190.2944 35.3447 182.7313 27.7815 curveto
stroke
grestore
% 12--2
gsave
.25 setlinewidth
0 0 0 edgecolor
newpath 234.3501 53.1265 moveto
242.2201 45.2565 252.132 35.3447 259.6951 27.7815 curveto
stroke
grestore
% 17
gsave
1 setlinewidth
0 0 0 nodecolor
121.2132 66.2635 21.4286 16.0303 ellipse_path stroke
0 0 0 nodecolor
14 /Times-Roman set_font
114.2132 62.5635 moveto 14 (17) alignedtext
grestore
% 12--17
gsave
.25 setlinewidth
0 0 0 edgecolor
newpath 199.5147 66.2635 moveto
182.6265 66.2635 159.3152 66.2635 142.5258 66.2635 curveto
stroke
grestore
% 13
gsave
1 setlinewidth
0 0 0 nodecolor
321.2132 66.2635 21.4286 16.0303 ellipse_path stroke
0 0 0 nodecolor
14 /Times-Roman set_font
314.2132 62.5635 moveto 14 (13) alignedtext
grestore
% 13--3
gsave
.25 setlinewidth
0 0 0 edgecolor
newpath 334.3501 53.1265 moveto
342.2201 45.2565 352.132 35.3447 359.6951 27.7815 curveto
stroke
grestore
% 13--4
gsave
.25 setlinewidth
0 0 0 edgecolor
newpath 342.9117 66.2635 moveto
361.5232 66.2635 387.9355 66.2635 404.8227 66.2635 curveto
stroke
grestore
% 14
gsave
1 setlinewidth
0 0 0 nodecolor
271.2132 116.2635 21.4286 16.0303 ellipse_path stroke
0 0 0 nodecolor
14 /Times-Roman set_font
264.2132 112.5635 moveto 14 (14) alignedtext
grestore
% 14--5
gsave
.25 setlinewidth
0 0 0 edgecolor
newpath 292.9117 116.2635 moveto
311.5232 116.2635 337.9355 116.2635 354.8227 116.2635 curveto
stroke
grestore
% 14--6
gsave
.25 setlinewidth
0 0 0 edgecolor
newpath 284.3501 129.4004 moveto
292.2201 137.2704 302.132 147.1822 309.6951 154.7454 curveto
stroke
grestore
% 14--13
gsave
.25 setlinewidth
0 0 0 edgecolor
newpath 284.3501 103.1265 moveto
291.6414 95.8352 300.6854 86.7913 307.9904 79.4862 curveto
stroke
grestore
% 15
gsave
1 setlinewidth
0 0 0 nodecolor
221.2132 166.2635 21.4286 16.0303 ellipse_path stroke
0 0 0 nodecolor
14 /Times-Roman set_font
214.2132 162.5635 moveto 14 (15) alignedtext
grestore
% 15--7
gsave
.25 setlinewidth
0 0 0 edgecolor
newpath 234.3501 179.4004 moveto
242.2201 187.2704 252.132 197.1822 259.6951 204.7454 curveto
stroke
grestore
% 15--8
gsave
.25 setlinewidth
0 0 0 edgecolor
newpath 208.0763 179.4004 moveto
200.2063 187.2704 190.2944 197.1822 182.7313 204.7454 curveto
stroke
grestore
% 16
gsave
1 setlinewidth
0 0 0 nodecolor
171.2132 116.2635 21.4286 16.0303 ellipse_path stroke
0 0 0 nodecolor
14 /Times-Roman set_font
164.2132 112.5635 moveto 14 (16) alignedtext
grestore
% 16--9
gsave
.25 setlinewidth
0 0 0 edgecolor
newpath 158.0763 129.4004 moveto
150.2063 137.2704 140.2944 147.1822 132.7313 154.7454 curveto
stroke
grestore
% 16--10
gsave
.25 setlinewidth
0 0 0 edgecolor
newpath 149.5147 116.2635 moveto
132.6265 116.2635 109.3152 116.2635 92.5258 116.2635 curveto
stroke
grestore
% 16--15
gsave
.25 setlinewidth
0 0 0 edgecolor
newpath 184.3501 129.4004 moveto
191.6414 136.6917 200.6854 145.7357 207.9904 153.0407 curveto
stroke
grestore
% 17--0
gsave
.25 setlinewidth
0 0 0 edgecolor
newpath 108.0763 53.1265 moveto
100.2063 45.2565 90.2944 35.3447 82.7313 27.7815 curveto
stroke
grestore
% 17--11
gsave
.25 setlinewidth
0 0 0 edgecolor
newpath 99.5147 66.2635 moveto
82.6265 66.2635 59.3152 66.2635 42.5258 66.2635 curveto
stroke
grestore
endpage
showpage
grestore
%%PageTrailer
%%EndPage: 1
%%Trailer
%%Pages: 1
%%BoundingBox: 36 36 481 277
end
restore
%%EOF
