%!PS-Adobe-3.0
%%Creator: graphviz version 2.40.1 (20161225.0304)
%%Title: G
%%Pages: (atend)
%%BoundingBox: (atend)
%%EndComments
save
%%BeginProlog
/DotDict 200 dict def
DotDict begin

/setupLatin1 {
mark
/EncodingVector 256 array def
 EncodingVector 0

ISOLatin1Encoding 0 255 getinterval putinterval
EncodingVector 45 /hyphen put

% Set up ISO Latin 1 character encoding
/starnetISO {
        dup dup findfont dup length dict begin
        { 1 index /FID ne { def }{ pop pop } ifelse
        } forall
        /Encoding EncodingVector def
        currentdict end definefont
} def
/Times-Roman starnetISO def
/Times-Italic starnetISO def
/Times-Bold starnetISO def
/Times-BoldItalic starnetISO def
/Helvetica starnetISO def
/Helvetica-Oblique starnetISO def
/Helvetica-Bold starnetISO def
/Helvetica-BoldOblique starnetISO def
/Courier starnetISO def
/Courier-Oblique starnetISO def
/Courier-Bold starnetISO def
/Courier-BoldOblique starnetISO def
cleartomark
} bind def

%%BeginResource: procset graphviz 0 0
/coord-font-family /Times-Roman def
/default-font-family /Times-Roman def
/coordfont coord-font-family findfont 8 scalefont def

/InvScaleFactor 1.0 def
/set_scale {
       dup 1 exch div /InvScaleFactor exch def
       scale
} bind def

% styles
/solid { [] 0 setdash } bind def
/dashed { [9 InvScaleFactor mul dup ] 0 setdash } bind def
/dotted { [1 InvScaleFactor mul 6 InvScaleFactor mul] 0 setdash } bind def
/invis {/fill {newpath} def /stroke {newpath} def /show {pop newpath} def} bind def
/bold { 2 setlinewidth } bind def
/filled { } bind def
/unfilled { } bind def
/rounded { } bind def
/diagonals { } bind def
/tapered { } bind def

% hooks for setting color 
/nodecolor { sethsbcolor } bind def
/edgecolor { sethsbcolor } bind def
/graphcolor { sethsbcolor } bind def
/nopcolor {pop pop pop} bind def

/beginpage {	% i j npages
	/npages exch def
	/j exch def
	/i exch def
	/str 10 string def
	npages 1 gt {
		gsave
			coordfont setfont
			0 0 moveto
			(\() show i str cvs show (,) show j str cvs show (\)) show
		grestore
	} if
} bind def

/set_font {
	findfont exch
	scalefont setfont
} def

% draw text fitted to its expected width
/alignedtext {			% width text
	/text exch def
	/width exch def
	gsave
		width 0 gt {
			[] 0 setdash
			text stringwidth pop width exch sub text length div 0 text ashow
		} if
	grestore
} def

/boxprim {				% xcorner ycorner xsize ysize
		4 2 roll
		moveto
		2 copy
		exch 0 rlineto
		0 exch rlineto
		pop neg 0 rlineto
		closepath
} bind def

/ellipse_path {
	/ry exch def
	/rx exch def
	/y exch def
	/x exch def
	matrix currentmatrix
	newpath
	x y translate
	rx ry scale
	0 0 1 0 360 arc
	setmatrix
} bind def

/endpage { showpage } bind def
/showpage { } def

/layercolorseq
	[	% layer color sequence - darkest to lightest
		[0 0 0]
		[.2 .8 .8]
		[.4 .8 .8]
		[.6 .8 .8]
		[.8 .8 .8]
	]
def

/layerlen layercolorseq length def

/setlayer {/maxlayer exch def /curlayer exch def
	layercolorseq curlayer 1 sub layerlen mod get
	aload pop sethsbcolor
	/nodecolor {nopcolor} def
	/edgecolor {nopcolor} def
	/graphcolor {nopcolor} def
} bind def

/onlayer { curlayer ne {invis} if } def

/onlayers {
	/myupper exch def
	/mylower exch def
	curlayer mylower lt
	curlayer myupper gt
	or
	{invis} if
} def

/curlayer 0 def

%%EndResource
%%EndProlog
%%BeginSetup
14 default-font-family set_font
% /arrowlength 10 def
% /arrowwidth 5 def

% make sure pdfmark is harmless for PS-interpreters other than Distiller
/pdfmark where {pop} {userdict /pdfmark /cleartomark load put} ifelse
% make '<<' and '>>' safe on PS Level 1 devices
/languagelevel where {pop languagelevel}{1} ifelse
2 lt {
    userdict (<<) cvn ([) cvn load put
    userdict (>>) cvn ([) cvn load put
} if

%%EndSetup
setupLatin1
%%Page: 1 1
%%PageBoundingBox: 36 36 881 477
%%PageOrientation: Portrait
0 0 1 beginpage
gsave
36 36 845 441 boxprim clip newpath
1 1 set_scale 0 rotate 40 40 translate
% 0
gsave
1 setlinewidth
0 0 0 nodecolor
71.2132 16.2635 16.0303 16.0303 ellipse_path stroke
0 0 0 nodecolor
14 /Times-Roman set_font
67.7132 12.5635 moveto 7 (0) alignedtext
grestore
% 23
gsave
1 setlinewidth
0 0 0 nodecolor
21.2132 66.2635 21.4286 16.0303 ellipse_path stroke
0 0 0 nodecolor
14 /Times-Roman set_font
14.2132 62.5635 moveto 14 (23) alignedtext
grestore
% 0--23
gsave
.25 setlinewidth
0 0 0 edgecolor
newpath 59.6165 27.8601 moveto
52.0005 35.4762 42.0282 45.4484 34.1545 53.3222 curveto
stroke
grestore
% 1
gsave
1 setlinewidth
0 0 0 nodecolor
171.2132 16.2635 16.0303 16.0303 ellipse_path stroke
0 0 0 nodecolor
14 /Times-Roman set_font
167.7132 12.5635 moveto 7 (1) alignedtext
grestore
% 1--0
gsave
.25 setlinewidth
0 0 0 edgecolor
newpath 154.7002 16.2635 moveto
136.1718 16.2635 106.2891 16.2635 87.7507 16.2635 curveto
stroke
grestore
% 2
gsave
1 setlinewidth
0 0 0 nodecolor
271.2132 16.2635 16.0303 16.0303 ellipse_path stroke
0 0 0 nodecolor
14 /Times-Roman set_font
267.7132 12.5635 moveto 7 (2) alignedtext
grestore
% 2--1
gsave
.25 setlinewidth
0 0 0 edgecolor
newpath 254.7002 16.2635 moveto
236.1718 16.2635 206.2891 16.2635 187.7507 16.2635 curveto
stroke
grestore
% 3
gsave
1 setlinewidth
0 0 0 nodecolor
371.2132 16.2635 16.0303 16.0303 ellipse_path stroke
0 0 0 nodecolor
14 /Times-Roman set_font
367.7132 12.5635 moveto 7 (3) alignedtext
grestore
% 3--2
gsave
.25 setlinewidth
0 0 0 edgecolor
newpath 354.7002 16.2635 moveto
336.1718 16.2635 306.2891 16.2635 287.7507 16.2635 curveto
stroke
grestore
% 4
gsave
1 setlinewidth
0 0 0 nodecolor
471.2132 16.2635 16.0303 16.0303 ellipse_path stroke
0 0 0 nodecolor
14 /Times-Roman set_font
467.7132 12.5635 moveto 7 (4) alignedtext
grestore
% 4--3
gsave
.25 setlinewidth
0 0 0 edgecolor
newpath 454.7002 16.2635 moveto
436.1718 16.2635 406.2891 16.2635 387.7507 16.2635 curveto
stroke
grestore
% 5
gsave
1 setlinewidth
0 0 0 nodecolor
571.2132 16.2635 16.0303 16.0303 ellipse_path stroke
0 0 0 nodecolor
14 /Times-Roman set_font
567.7132 12.5635 moveto 7 (5) alignedtext
grestore
% 5--4
gsave
.25 setlinewidth
0 0 0 edgecolor
newpath 554.7002 16.2635 moveto
536.1718 16.2635 506.2891 16.2635 487.7507 16.2635 curveto
stroke
grestore
% 6
gsave
1 setlinewidth
0 0 0 nodecolor
671.2132 16.2635 16.0303 16.0303 ellipse_path stroke
0 0 0 nodecolor
14 /Times-Roman set_font
667.7132 12.5635 moveto 7 (6) alignedtext
grestore
% 6--5
gsave
.25 setlinewidth
0 0 0 edgecolor
newpath 654.7002 16.2635 moveto
636.1718 16.2635 606.2891 16.2635 587.7507 16.2635 curveto
stroke
grestore
% 7
gsave
1 setlinewidth
0 0 0 nodecolor
771.2132 16.2635 16.0303 16.0303 ellipse_path stroke
0 0 0 nodecolor
14 /Times-Roman set_font
767.7132 12.5635 moveto 7 (7) alignedtext
grestore
% 7--6
gsave
.25 setlinewidth
0 0 0 edgecolor
newpath 754.7002 16.2635 moveto
736.1718 16.2635 706.2891 16.2635 687.7507 16.2635 curveto
stroke
grestore
% 29
gsave
1 setlinewidth
0 0 0 nodecolor
721.2132 66.2635 21.4286 16.0303 ellipse_path stroke
0 0 0 nodecolor
14 /Times-Roman set_font
714.2132 62.5635 moveto 14 (29) alignedtext
grestore
% 7--29
gsave
.25 setlinewidth
0 0 0 edgecolor
newpath 759.6165 27.8601 moveto
752.0005 35.4762 742.0282 45.4484 734.1545 53.3222 curveto
stroke
grestore
% 8
gsave
1 setlinewidth
0 0 0 nodecolor
821.2132 66.2635 16.0303 16.0303 ellipse_path stroke
0 0 0 nodecolor
14 /Times-Roman set_font
817.7132 62.5635 moveto 7 (8) alignedtext
grestore
% 8--7
gsave
.25 setlinewidth
0 0 0 edgecolor
newpath 809.6165 54.6668 moveto
801.5389 46.5892 790.8108 35.8611 782.747 27.7972 curveto
stroke
grestore
% 8--29
gsave
.25 setlinewidth
0 0 0 edgecolor
newpath 804.7002 66.2635 moveto
787.7251 66.2635 761.2196 66.2635 742.6389 66.2635 curveto
stroke
grestore
% 9
gsave
1 setlinewidth
0 0 0 nodecolor
771.2132 116.2635 16.0303 16.0303 ellipse_path stroke
0 0 0 nodecolor
14 /Times-Roman set_font
767.7132 112.5635 moveto 7 (9) alignedtext
grestore
% 9--8
gsave
.25 setlinewidth
0 0 0 edgecolor
newpath 782.8099 104.6668 moveto
790.8875 96.5892 801.6156 85.8611 809.6794 77.7972 curveto
stroke
grestore
% 30
gsave
1 setlinewidth
0 0 0 nodecolor
671.2132 116.2635 21.4286 16.0303 ellipse_path stroke
0 0 0 nodecolor
14 /Times-Roman set_font
664.2132 112.5635 moveto 14 (30) alignedtext
grestore
% 9--30
gsave
.25 setlinewidth
0 0 0 edgecolor
newpath 754.7002 116.2635 moveto
737.7251 116.2635 711.2196 116.2635 692.6389 116.2635 curveto
stroke
grestore
% 10
gsave
1 setlinewidth
0 0 0 nodecolor
721.2132 166.2635 21.4286 16.0303 ellipse_path stroke
0 0 0 nodecolor
14 /Times-Roman set_font
714.2132 162.5635 moveto 14 (10) alignedtext
grestore
% 10--9
gsave
.25 setlinewidth
0 0 0 edgecolor
newpath 734.3501 153.1265 moveto
742.2201 145.2565 752.132 135.3447 759.6951 127.7815 curveto
stroke
grestore
% 31
gsave
1 setlinewidth
0 0 0 nodecolor
621.2132 166.2635 21.4286 16.0303 ellipse_path stroke
0 0 0 nodecolor
14 /Times-Roman set_font
614.2132 162.5635 moveto 14 (31) alignedtext
grestore
% 10--31
gsave
.25 setlinewidth
0 0 0 edgecolor
newpath 699.5147 166.2635 moveto
682.6265 166.2635 659.3152 166.2635 642.5258 166.2635 curveto
stroke
grestore
% 11
gsave
1 setlinewidth
0 0 0 nodecolor
671.2132 216.2635 21.4286 16.0303 ellipse_path stroke
0 0 0 nodecolor
14 /Times-Roman set_font
664.2132 212.5635 moveto 14 (11) alignedtext
grestore
% 11--10
gsave
.25 setlinewidth
0 0 0 edgecolor
newpath 684.3501 203.1265 moveto
691.6414 195.8352 700.6854 186.7913 707.9904 179.4862 curveto
stroke
grestore
% 32
gsave
1 setlinewidth
0 0 0 nodecolor
571.2132 216.2635 21.4286 16.0303 ellipse_path stroke
0 0 0 nodecolor
14 /Times-Roman set_font
564.2132 212.5635 moveto 14 (32) alignedtext
grestore
% 11--32
gsave
.25 setlinewidth
0 0 0 edgecolor
newpath 649.5147 216.2635 moveto
632.6265 216.2635 609.3152 216.2635 592.5258 216.2635 curveto
stroke
grestore
% 12
gsave
1 setlinewidth
0 0 0 nodecolor
621.2132 266.2635 21.4286 16.0303 ellipse_path stroke
0 0 0 nodecolor
14 /Times-Roman set_font
614.2132 262.5635 moveto 14 (12) alignedtext
grestore
% 12--11
gsave
.25 setlinewidth
0 0 0 edgecolor
newpath 634.3501 253.1265 moveto
641.6414 245.8352 650.6854 236.7913 657.9904 229.4862 curveto
stroke
grestore
% 33
gsave
1 setlinewidth
0 0 0 nodecolor
521.2132 266.2635 21.4286 16.0303 ellipse_path stroke
0 0 0 nodecolor
14 /Times-Roman set_font
514.2132 262.5635 moveto 14 (33) alignedtext
grestore
% 12--33
gsave
.25 setlinewidth
0 0 0 edgecolor
newpath 599.5147 266.2635 moveto
582.6265 266.2635 559.3152 266.2635 542.5258 266.2635 curveto
stroke
grestore
% 13
gsave
1 setlinewidth
0 0 0 nodecolor
571.2132 316.2635 21.4286 16.0303 ellipse_path stroke
0 0 0 nodecolor
14 /Times-Roman set_font
564.2132 312.5635 moveto 14 (13) alignedtext
grestore
% 13--12
gsave
.25 setlinewidth
0 0 0 edgecolor
newpath 584.3501 303.1265 moveto
591.6414 295.8352 600.6854 286.7913 607.9904 279.4862 curveto
stroke
grestore
% 34
gsave
1 setlinewidth
0 0 0 nodecolor
471.2132 316.2635 21.4286 16.0303 ellipse_path stroke
0 0 0 nodecolor
14 /Times-Roman set_font
464.2132 312.5635 moveto 14 (34) alignedtext
grestore
% 13--34
gsave
.25 setlinewidth
0 0 0 edgecolor
newpath 549.5147 316.2635 moveto
532.6265 316.2635 509.3152 316.2635 492.5258 316.2635 curveto
stroke
grestore
% 14
gsave
1 setlinewidth
0 0 0 nodecolor
521.2132 366.2635 21.4286 16.0303 ellipse_path stroke
0 0 0 nodecolor
14 /Times-Roman set_font
514.2132 362.5635 moveto 14 (14) alignedtext
grestore
% 14--13
gsave
.25 setlinewidth
0 0 0 edgecolor
newpath 534.3501 353.1265 moveto
541.6414 345.8352 550.6854 336.7913 557.9904 329.4862 curveto
stroke
grestore
% 14--34
gsave
.25 setlinewidth
0 0 0 edgecolor
newpath 508.0763 353.1265 moveto
500.785 345.8352 491.741 336.7913 484.436 329.4862 curveto
stroke
grestore
% 15
gsave
1 setlinewidth
0 0 0 nodecolor
471.2132 416.2635 21.4286 16.0303 ellipse_path stroke
0 0 0 nodecolor
14 /Times-Roman set_font
464.2132 412.5635 moveto 14 (15) alignedtext
grestore
% 15--14
gsave
.25 setlinewidth
0 0 0 edgecolor
newpath 484.3501 403.1265 moveto
491.6414 395.8352 500.6854 386.7913 507.9904 379.4862 curveto
stroke
grestore
% 35
gsave
1 setlinewidth
0 0 0 nodecolor
421.2132 366.2635 21.4286 16.0303 ellipse_path stroke
0 0 0 nodecolor
14 /Times-Roman set_font
414.2132 362.5635 moveto 14 (35) alignedtext
grestore
% 15--35
gsave
.25 setlinewidth
0 0 0 edgecolor
newpath 458.0763 403.1265 moveto
450.785 395.8352 441.741 386.7913 434.436 379.4862 curveto
stroke
grestore
% 16
gsave
1 setlinewidth
0 0 0 nodecolor
371.2132 416.2635 21.4286 16.0303 ellipse_path stroke
0 0 0 nodecolor
14 /Times-Roman set_font
364.2132 412.5635 moveto 14 (16) alignedtext
grestore
% 16--15
gsave
.25 setlinewidth
0 0 0 edgecolor
newpath 392.9117 416.2635 moveto
409.7999 416.2635 433.1112 416.2635 449.9006 416.2635 curveto
stroke
grestore
% 16--35
gsave
.25 setlinewidth
0 0 0 edgecolor
newpath 384.3501 403.1265 moveto
391.6414 395.8352 400.6854 386.7913 407.9904 379.4862 curveto
stroke
grestore
% 17
gsave
1 setlinewidth
0 0 0 nodecolor
321.2132 366.2635 21.4286 16.0303 ellipse_path stroke
0 0 0 nodecolor
14 /Times-Roman set_font
314.2132 362.5635 moveto 14 (17) alignedtext
grestore
% 17--16
gsave
.25 setlinewidth
0 0 0 edgecolor
newpath 334.3501 379.4004 moveto
341.6414 386.6917 350.6854 395.7357 357.9904 403.0407 curveto
stroke
grestore
% 36
gsave
1 setlinewidth
0 0 0 nodecolor
371.2132 316.2635 21.4286 16.0303 ellipse_path stroke
0 0 0 nodecolor
14 /Times-Roman set_font
364.2132 312.5635 moveto 14 (36) alignedtext
grestore
% 17--36
gsave
.25 setlinewidth
0 0 0 edgecolor
newpath 334.3501 353.1265 moveto
341.6414 345.8352 350.6854 336.7913 357.9904 329.4862 curveto
stroke
grestore
% 18
gsave
1 setlinewidth
0 0 0 nodecolor
271.2132 316.2635 21.4286 16.0303 ellipse_path stroke
0 0 0 nodecolor
14 /Times-Roman set_font
264.2132 312.5635 moveto 14 (18) alignedtext
grestore
% 18--17
gsave
.25 setlinewidth
0 0 0 edgecolor
newpath 284.3501 329.4004 moveto
291.6414 336.6917 300.6854 345.7357 307.9904 353.0407 curveto
stroke
grestore
% 37
gsave
1 setlinewidth
0 0 0 nodecolor
321.2132 266.2635 21.4286 16.0303 ellipse_path stroke
0 0 0 nodecolor
14 /Times-Roman set_font
314.2132 262.5635 moveto 14 (37) alignedtext
grestore
% 18--37
gsave
.25 setlinewidth
0 0 0 edgecolor
newpath 284.3501 303.1265 moveto
291.6414 295.8352 300.6854 286.7913 307.9904 279.4862 curveto
stroke
grestore
% 19
gsave
1 setlinewidth
0 0 0 nodecolor
221.2132 266.2635 21.4286 16.0303 ellipse_path stroke
0 0 0 nodecolor
14 /Times-Roman set_font
214.2132 262.5635 moveto 14 (19) alignedtext
grestore
% 19--18
gsave
.25 setlinewidth
0 0 0 edgecolor
newpath 234.3501 279.4004 moveto
241.6414 286.6917 250.6854 295.7357 257.9904 303.0407 curveto
stroke
grestore
% 38
gsave
1 setlinewidth
0 0 0 nodecolor
271.2132 216.2635 21.4286 16.0303 ellipse_path stroke
0 0 0 nodecolor
14 /Times-Roman set_font
264.2132 212.5635 moveto 14 (38) alignedtext
grestore
% 19--38
gsave
.25 setlinewidth
0 0 0 edgecolor
newpath 234.3501 253.1265 moveto
241.6414 245.8352 250.6854 236.7913 257.9904 229.4862 curveto
stroke
grestore
% 20
gsave
1 setlinewidth
0 0 0 nodecolor
171.2132 216.2635 21.4286 16.0303 ellipse_path stroke
0 0 0 nodecolor
14 /Times-Roman set_font
164.2132 212.5635 moveto 14 (20) alignedtext
grestore
% 20--19
gsave
.25 setlinewidth
0 0 0 edgecolor
newpath 184.3501 229.4004 moveto
191.6414 236.6917 200.6854 245.7357 207.9904 253.0407 curveto
stroke
grestore
% 39
gsave
1 setlinewidth
0 0 0 nodecolor
221.2132 166.2635 21.4286 16.0303 ellipse_path stroke
0 0 0 nodecolor
14 /Times-Roman set_font
214.2132 162.5635 moveto 14 (39) alignedtext
grestore
% 20--39
gsave
.25 setlinewidth
0 0 0 edgecolor
newpath 184.3501 203.1265 moveto
191.6414 195.8352 200.6854 186.7913 207.9904 179.4862 curveto
stroke
grestore
% 21
gsave
1 setlinewidth
0 0 0 nodecolor
121.2132 166.2635 21.4286 16.0303 ellipse_path stroke
0 0 0 nodecolor
14 /Times-Roman set_font
114.2132 162.5635 moveto 14 (21) alignedtext
grestore
% 21--20
gsave
.25 setlinewidth
0 0 0 edgecolor
newpath 134.3501 179.4004 moveto
141.6414 186.6917 150.6854 195.7357 157.9904 203.0407 curveto
stroke
grestore
% 40
gsave
1 setlinewidth
0 0 0 nodecolor
171.2132 116.2635 21.4286 16.0303 ellipse_path stroke
0 0 0 nodecolor
14 /Times-Roman set_font
164.2132 112.5635 moveto 14 (40) alignedtext
grestore
% 21--40
gsave
.25 setlinewidth
0 0 0 edgecolor
newpath 134.3501 153.1265 moveto
141.6414 145.8352 150.6854 136.7913 157.9904 129.4862 curveto
stroke
grestore
% 22
gsave
1 setlinewidth
0 0 0 nodecolor
71.2132 116.2635 21.4286 16.0303 ellipse_path stroke
0 0 0 nodecolor
14 /Times-Roman set_font
64.2132 112.5635 moveto 14 (22) alignedtext
grestore
% 22--21
gsave
.25 setlinewidth
0 0 0 edgecolor
newpath 84.3501 129.4004 moveto
91.6414 136.6917 100.6854 145.7357 107.9904 153.0407 curveto
stroke
grestore
% 22--40
gsave
.25 setlinewidth
0 0 0 edgecolor
newpath 92.9117 116.2635 moveto
109.7999 116.2635 133.1112 116.2635 149.9006 116.2635 curveto
stroke
grestore
% 23--22
gsave
.25 setlinewidth
0 0 0 edgecolor
newpath 34.3501 79.4004 moveto
41.6414 86.6917 50.6854 95.7357 57.9904 103.0407 curveto
stroke
grestore
% 24
gsave
1 setlinewidth
0 0 0 nodecolor
221.2132 66.2635 21.4286 16.0303 ellipse_path stroke
0 0 0 nodecolor
14 /Times-Roman set_font
214.2132 62.5635 moveto 14 (24) alignedtext
grestore
% 24--1
gsave
.25 setlinewidth
0 0 0 edgecolor
newpath 208.0763 53.1265 moveto
200.2063 45.2565 190.2944 35.3447 182.7313 27.7815 curveto
stroke
grestore
% 25
gsave
1 setlinewidth
0 0 0 nodecolor
321.2132 66.2635 21.4286 16.0303 ellipse_path stroke
0 0 0 nodecolor
14 /Times-Roman set_font
314.2132 62.5635 moveto 14 (25) alignedtext
grestore
% 25--2
gsave
.25 setlinewidth
0 0 0 edgecolor
newpath 308.0763 53.1265 moveto
300.2063 45.2565 290.2944 35.3447 282.7313 27.7815 curveto
stroke
grestore
% 25--24
gsave
.25 setlinewidth
0 0 0 edgecolor
newpath 299.5147 66.2635 moveto
282.6265 66.2635 259.3152 66.2635 242.5258 66.2635 curveto
stroke
grestore
% 26
gsave
1 setlinewidth
0 0 0 nodecolor
421.2132 66.2635 21.4286 16.0303 ellipse_path stroke
0 0 0 nodecolor
14 /Times-Roman set_font
414.2132 62.5635 moveto 14 (26) alignedtext
grestore
% 26--3
gsave
.25 setlinewidth
0 0 0 edgecolor
newpath 408.0763 53.1265 moveto
400.2063 45.2565 390.2944 35.3447 382.7313 27.7815 curveto
stroke
grestore
% 26--25
gsave
.25 setlinewidth
0 0 0 edgecolor
newpath 399.5147 66.2635 moveto
382.6265 66.2635 359.3152 66.2635 342.5258 66.2635 curveto
stroke
grestore
% 27
gsave
1 setlinewidth
0 0 0 nodecolor
521.2132 66.2635 21.4286 16.0303 ellipse_path stroke
0 0 0 nodecolor
14 /Times-Roman set_font
514.2132 62.5635 moveto 14 (27) alignedtext
grestore
% 27--4
gsave
.25 setlinewidth
0 0 0 edgecolor
newpath 508.0763 53.1265 moveto
500.2063 45.2565 490.2944 35.3447 482.7313 27.7815 curveto
stroke
grestore
% 27--26
gsave
.25 setlinewidth
0 0 0 edgecolor
newpath 499.5147 66.2635 moveto
482.6265 66.2635 459.3152 66.2635 442.5258 66.2635 curveto
stroke
grestore
% 28
gsave
1 setlinewidth
0 0 0 nodecolor
621.2132 66.2635 21.4286 16.0303 ellipse_path stroke
0 0 0 nodecolor
14 /Times-Roman set_font
614.2132 62.5635 moveto 14 (28) alignedtext
grestore
% 28--5
gsave
.25 setlinewidth
0 0 0 edgecolor
newpath 608.0763 53.1265 moveto
600.2063 45.2565 590.2944 35.3447 582.7313 27.7815 curveto
stroke
grestore
% 28--6
gsave
.25 setlinewidth
0 0 0 edgecolor
newpath 634.3501 53.1265 moveto
642.2201 45.2565 652.132 35.3447 659.6951 27.7815 curveto
stroke
grestore
% 30--29
gsave
.25 setlinewidth
0 0 0 edgecolor
newpath 684.3501 103.1265 moveto
691.6414 95.8352 700.6854 86.7913 707.9904 79.4862 curveto
stroke
grestore
% 31--30
gsave
.25 setlinewidth
0 0 0 edgecolor
newpath 634.3501 153.1265 moveto
641.6414 145.8352 650.6854 136.7913 657.9904 129.4862 curveto
stroke
grestore
% 32--31
gsave
.25 setlinewidth
0 0 0 edgecolor
newpath 584.3501 203.1265 moveto
591.6414 195.8352 600.6854 186.7913 607.9904 179.4862 curveto
stroke
grestore
% 33--32
gsave
.25 setlinewidth
0 0 0 edgecolor
newpath 534.3501 253.1265 moveto
541.6414 245.8352 550.6854 236.7913 557.9904 229.4862 curveto
stroke
grestore
% 36--35
gsave
.25 setlinewidth
0 0 0 edgecolor
newpath 384.3501 329.4004 moveto
391.6414 336.6917 400.6854 345.7357 407.9904 353.0407 curveto
stroke
grestore
% 37--36
gsave
.25 setlinewidth
0 0 0 edgecolor
newpath 334.3501 279.4004 moveto
341.6414 286.6917 350.6854 295.7357 357.9904 303.0407 curveto
stroke
grestore
% 38--37
gsave
.25 setlinewidth
0 0 0 edgecolor
newpath 284.3501 229.4004 moveto
291.6414 236.6917 300.6854 245.7357 307.9904 253.0407 curveto
stroke
grestore
% 39--38
gsave
.25 setlinewidth
0 0 0 edgecolor
newpath 234.3501 179.4004 moveto
241.6414 186.6917 250.6854 195.7357 257.9904 203.0407 curveto
stroke
grestore
% 41
gsave
1 setlinewidth
0 0 0 nodecolor
121.2132 66.2635 21.4286 16.0303 ellipse_path stroke
0 0 0 nodecolor
14 /Times-Roman set_font
114.2132 62.5635 moveto 14 (41) alignedtext
grestore
% 41--0
gsave
.25 setlinewidth
0 0 0 edgecolor
newpath 108.0763 53.1265 moveto
100.2063 45.2565 90.2944 35.3447 82.7313 27.7815 curveto
stroke
grestore
% 41--23
gsave
.25 setlinewidth
0 0 0 edgecolor
newpath 99.5147 66.2635 moveto
82.6265 66.2635 59.3152 66.2635 42.5258 66.2635 curveto
stroke
grestore
% 41--24
gsave
.25 setlinewidth
0 0 0 edgecolor
newpath 142.9117 66.2635 moveto
159.7999 66.2635 183.1112 66.2635 199.9006 66.2635 curveto
stroke
grestore
% 42
gsave
1 setlinewidth
0 0 0 nodecolor
371.2132 116.2635 21.4286 16.0303 ellipse_path stroke
0 0 0 nodecolor
14 /Times-Roman set_font
364.2132 112.5635 moveto 14 (42) alignedtext
grestore
% 49
gsave
1 setlinewidth
0 0 0 nodecolor
321.2132 166.2635 21.4286 16.0303 ellipse_path stroke
0 0 0 nodecolor
14 /Times-Roman set_font
314.2132 162.5635 moveto 14 (49) alignedtext
grestore
% 42--49
gsave
.25 setlinewidth
0 0 0 edgecolor
newpath 358.0763 129.4004 moveto
350.785 136.6917 341.741 145.7357 334.436 153.0407 curveto
stroke
grestore
% 43
gsave
1 setlinewidth
0 0 0 nodecolor
471.2132 116.2635 21.4286 16.0303 ellipse_path stroke
0 0 0 nodecolor
14 /Times-Roman set_font
464.2132 112.5635 moveto 14 (43) alignedtext
grestore
% 43--42
gsave
.25 setlinewidth
0 0 0 edgecolor
newpath 449.5147 116.2635 moveto
432.6265 116.2635 409.3152 116.2635 392.5258 116.2635 curveto
stroke
grestore
% 44
gsave
1 setlinewidth
0 0 0 nodecolor
571.2132 116.2635 21.4286 16.0303 ellipse_path stroke
0 0 0 nodecolor
14 /Times-Roman set_font
564.2132 112.5635 moveto 14 (44) alignedtext
grestore
% 44--27
gsave
.25 setlinewidth
0 0 0 edgecolor
newpath 558.0763 103.1265 moveto
550.785 95.8352 541.741 86.7913 534.436 79.4862 curveto
stroke
grestore
% 44--28
gsave
.25 setlinewidth
0 0 0 edgecolor
newpath 584.3501 103.1265 moveto
591.6414 95.8352 600.6854 86.7913 607.9904 79.4862 curveto
stroke
grestore
% 45
gsave
1 setlinewidth
0 0 0 nodecolor
521.2132 166.2635 21.4286 16.0303 ellipse_path stroke
0 0 0 nodecolor
14 /Times-Roman set_font
514.2132 162.5635 moveto 14 (45) alignedtext
grestore
% 44--45
gsave
.25 setlinewidth
0 0 0 edgecolor
newpath 558.0763 129.4004 moveto
550.785 136.6917 541.741 145.7357 534.436 153.0407 curveto
stroke
grestore
% 45--43
gsave
.25 setlinewidth
0 0 0 edgecolor
newpath 508.0763 153.1265 moveto
500.785 145.8352 491.741 136.7913 484.436 129.4862 curveto
stroke
grestore
% 46
gsave
1 setlinewidth
0 0 0 nodecolor
471.2132 216.2635 21.4286 16.0303 ellipse_path stroke
0 0 0 nodecolor
14 /Times-Roman set_font
464.2132 212.5635 moveto 14 (46) alignedtext
grestore
% 46--45
gsave
.25 setlinewidth
0 0 0 edgecolor
newpath 484.3501 203.1265 moveto
491.6414 195.8352 500.6854 186.7913 507.9904 179.4862 curveto
stroke
grestore
% 47
gsave
1 setlinewidth
0 0 0 nodecolor
421.2132 266.2635 21.4286 16.0303 ellipse_path stroke
0 0 0 nodecolor
14 /Times-Roman set_font
414.2132 262.5635 moveto 14 (47) alignedtext
grestore
% 47--33
gsave
.25 setlinewidth
0 0 0 edgecolor
newpath 442.9117 266.2635 moveto
459.7999 266.2635 483.1112 266.2635 499.9006 266.2635 curveto
stroke
grestore
% 47--34
gsave
.25 setlinewidth
0 0 0 edgecolor
newpath 434.3501 279.4004 moveto
441.6414 286.6917 450.6854 295.7357 457.9904 303.0407 curveto
stroke
grestore
% 48
gsave
1 setlinewidth
0 0 0 nodecolor
371.2132 216.2635 21.4286 16.0303 ellipse_path stroke
0 0 0 nodecolor
14 /Times-Roman set_font
364.2132 212.5635 moveto 14 (48) alignedtext
grestore
% 47--48
gsave
.25 setlinewidth
0 0 0 edgecolor
newpath 408.0763 253.1265 moveto
400.785 245.8352 391.741 236.7913 384.436 229.4862 curveto
stroke
grestore
% 48--46
gsave
.25 setlinewidth
0 0 0 edgecolor
newpath 392.9117 216.2635 moveto
409.7999 216.2635 433.1112 216.2635 449.9006 216.2635 curveto
stroke
grestore
% 49--48
gsave
.25 setlinewidth
0 0 0 edgecolor
newpath 334.3501 179.4004 moveto
341.6414 186.6917 350.6854 195.7357 357.9904 203.0407 curveto
stroke
grestore
% 50
gsave
1 setlinewidth
0 0 0 nodecolor
271.2132 116.2635 21.4286 16.0303 ellipse_path stroke
0 0 0 nodecolor
14 /Times-Roman set_font
264.2132 112.5635 moveto 14 (50) alignedtext
grestore
% 50--39
gsave
.25 setlinewidth
0 0 0 edgecolor
newpath 258.0763 129.4004 moveto
250.785 136.6917 241.741 145.7357 234.436 153.0407 curveto
stroke
grestore
% 50--40
gsave
.25 setlinewidth
0 0 0 edgecolor
newpath 249.5147 116.2635 moveto
232.6265 116.2635 209.3152 116.2635 192.5258 116.2635 curveto
stroke
grestore
% 50--42
gsave
.25 setlinewidth
0 0 0 edgecolor
newpath 292.9117 116.2635 moveto
309.7999 116.2635 333.1112 116.2635 349.9006 116.2635 curveto
stroke
grestore
% 51
gsave
1 setlinewidth
0 0 0 nodecolor
421.2132 166.2635 21.4286 16.0303 ellipse_path stroke
0 0 0 nodecolor
14 /Times-Roman set_font
414.2132 162.5635 moveto 14 (51) alignedtext
grestore
% 51--43
gsave
.25 setlinewidth
0 0 0 edgecolor
newpath 434.3501 153.1265 moveto
441.6414 145.8352 450.6854 136.7913 457.9904 129.4862 curveto
stroke
grestore
% 51--46
gsave
.25 setlinewidth
0 0 0 edgecolor
newpath 434.3501 179.4004 moveto
441.6414 186.6917 450.6854 195.7357 457.9904 203.0407 curveto
stroke
grestore
% 51--49
gsave
.25 setlinewidth
0 0 0 edgecolor
newpath 399.5147 166.2635 moveto
382.6265 166.2635 359.3152 166.2635 342.5258 166.2635 curveto
stroke
grestore
endpage
showpage
grestore
%%PageTrailer
%%EndPage: 1
%%Trailer
%%Pages: 1
%%BoundingBox: 36 36 881 477
end
restore
%%EOF
